{
"Activate": "Activer",
"Angle": "Angle",
"Author": "Auteur",
"AuthorPl": "Auteurs",
"AreYouSure": "Êtes-vous sûr ??",
"and": "et",
"Between": "Entre",
"Cancel": "Annuler",
"Character": "Personnage",
"Configure": "Configurer",
"Command": "Commande",
"Collapse": "Réduire",
"Close": "Fermer",
"Degrees": "Degrés",
"Default": "Par défaut",
"Delete": "Supprimer",
"Description": "Description",
"Distance": "Distance",
"Direction": "Direction",
"Documentation": "Documentation",
"Duplicate": "Dupliquer",
"Error": "Erreur",
"Expand": "Agrandir",
"GridUnits": "Unités de la grille",
"Install": "Installation",
"Elevation": "Élévation",
"Foundry Virtual Tabletop": "Foundry Virtual Tabletop",
"File Path": "Emplacement du Fichier",
"Height": "Hauteur",
"Hidden": "Caché, ",
"Hold": "Maintenir",
"Name": " Nom",
"No": "Non",
"Notes": "Notes",
"Preload": "Précharger",
"Token": "Token",
"Minimum": "Minimum",
"Maximum": "Maximum",
"Image": "Image",
"None": "Aucun",
"Path": "Chemin",
"Packs": "Packs",
"Permissions": "Permissions",
"Position": "Position",
"Pixels": "Pixels",
"Ratio": "Ratio",
"Resources": "Ressources",
"Result": "Résultat",
"Rotation": "Rotation",
"Roll Formula": "Formule de dés",
"Commit Change": "Valider les modifications",
"Reset Changes": "Abandonner les modifications",
"Save Changes": "Sauvegarder les modifications",
"Scale": "Échelle",
"Scope": "Portée",
"Seconds": "Secondes",
"Sheet": "Feuille",
"System": "Système",
"Software": "Logiciel",
"Template": "Modèle",
"Type": "Type",
"Uninstall": "Désinstaller",
"Update": "À jour",
"URL": "URL",
"Vision": "Vision",
"Warning": "Attention",
"Width": "Largeur",
"XCoord": "Coordonnée-X",
"YCoord": "Coordonnée-Y",
"Yes": "Oui",

"APP.NavigateBackConfirm": "Etes-vous sûr de vouloir quitter Foundry Virtual Tabletop ?",

"CARDS.CardsDeck": "Cartes dans le paquet",
"CARDS.CardsHand": "Cartes en main",
"CARDS.CardsPile": "Cartes dans la pile",
"CARDS.DeckPreset": "Configuration prédéfinie",
"CARDS.DeckPresetPokerDark": "Jeu de Poker (Sombre)",
"CARDS.DeckPresetPokerLight": "Jeu de Poker (Clair)",
"CARDS.Deal": "Distribuer",
"CARDS.DealHint": "Choisissez les mains auxquelles les cartes seront distribuées. Le même nombre de cartes sera distribué à toutes ces mains sélectionnées.",
"CARDS.DealTitle": "Cartes",
"CARDS.DealTo": "Distribuer à",
"CARDS.DealWarnNoTargets": "Aucun type de jeu de cartes disponible ne permet la distribution.",
"CARDS.DeleteCannot": "Ne peut être supprimer",
"CARDS.DeleteCannotHint": "Des cartes ont été tirées depuis les piles suivantes et ne peuvent donc pas être supprimées, veuillez les réinitialiser préalablement : {piles}",
"CARDS.DeleteMustReset": "Attention, cette pile de cartes doit être remise à zéro avant de pouvoir être supprimée : ",
"CARDS.DeleteReset": "Réinitialisation et suppression",
"CARDS.Description": "Description du paquet de cartes",
"CARDS.Dimensions": "Dimensions par défaut",
"CARDS.Draw": "Piocher",
"CARDS.DrawFrom": "Piocher depuis",
"CARDS.DrawTitle": "Piocher des cartes",
"CARDS.DrawHint": "Choisissez un paquet dans lequel vous devez tirer un certain nombre de cartes.",
"CARDS.DrawMode": "Type de tirage",
"CARDS.DrawModeTop": "Dessus (premier)",
"CARDS.DrawModeBottom": "Dessous (dernier)",
"CARDS.DrawModeRandom": "Aléatoire",
"CARDS.DrawWarnNoSources": "Aucun type de jeu de cartes disponible ne permet la pioche.",
"CARDS.Facedown": "Face cachée",
"CARDS.HeaderDetails": "Configuration",
"CARDS.HeaderCards": "Cartes",
"CARDS.Image": "Image de fond par défaut",
"CARDS.Number": "Numéro",
"CARDS.NoCards": "Aucune carte présente",
"CARDS.Pass": "Passer",
"CARDS.PassTo": "Passer à",
"CARDS.PassTitle": "Passer des cartes",
"CARDS.PassHint": "Passer des cartes de cette pile à une autre pile de cartes.",
"CARDS.PassWarnNoTargets": "Aucun type de jeu de cartes disponible ne permet l'action de passer.",
"CARDS.Type": "Type de jeu de cartes",
"CARDS.TypeDeck": "Paquet",
"CARDS.TypeHand": "Main",
"CARDS.TypePile": "Pile",
"CARDS.Save": "Sauvegarder",
"CARDS.Shuffle": "Mélanger",
"CARDS.SortMode": "Mode de tri",
"CARDS.Reset": "Réinitialiser",
"CARDS.ResetConfirm": "Êtes-vous sûr de vouloir réinitialiser {name} ? Toutes les cartes distribuées seront reprises.",
"CARDS.ReturnConfirm": "Êtes-vous sûr ? Toutes les cartes de {name} seront remises dans leurs paquet d'origine.",

"CARDS.NotifyShuffle": "Mélange de : {link}",
"CARDS.NotifyPass": "{number} carte(s) passée(s) à : {link}",
"CARDS.NotifyPlay": "{number} carte(s) jouée(s) à : {link}",
"CARDS.NotifyDiscard": "{number} carte(s) défaussée(s) à : {link}",
"CARDS.NotifyDraw": "{number} carte(s) piochée(s) depuis: {link}",
"CARDS.NotifyDeal": "{number} carte(s) distribuées(s) chacune(s) à : {link}",
"CARDS.NotifyReset": "Rappel de toutes les cartes de : {link}",
"CARDS.NotifyReturn": "Restitution de toutes les cartes de : {link}",

"CARD.Create": "Créer une carte",
"CARD.Delete": "Supprimer la carte",
"CARD.Edit": "Editer la carte",
"CARD.HeaderDetails": "Détails de la carte",
"CARD.HeaderBack": "Dos de la carte",
"CARD.HeaderFaces": "Face de la carte",
"CARD.BackName": "Nom du dos",
"CARD.BackImage": "Image de dos",
"CARD.BackText": "Texte du dos",
"CARD.FaceName": "Nom de la face",
"CARD.FaceImage": "Image de la face",
"CARD.FaceText": "Texte de la face",
"CARD.FaceAdd": "Ajouter une face",
"CARD.FaceDelete": "Effacer la face",
"CARD.FaceNext": "prochaine face",
"CARD.FacePrevious": "Face précédente",
"CARD.FaceDeleteWarning": "En supprimant cette face de la carte, ses données seront définitivement supprimées de la carte.",
"CARD.Description": "Description",
"CARD.Dimensions": "Dimensions par défaut",
"CARD.Drawn": "Piochée(s)",
"CARD.Face": "Face",
"CARD.Type": "Type",
"CARD.TypeBase": "Base",
"CARD.Name": "Nom",
"CARD.Suit": "Couleur",
"CARD.Value": "Valeur",
"CARD.Save": "Sauvegarder la carte",
"CARD.Unknown": "Inconnu ({source})",
"CARD.Play": "Jouer la carte",
"CARD.PlayHint": "Jouer cette carte en la passant à une autre main ou à une autre pile.",

"CHAT.Chat": "Tchat",
"CHAT.Clear": "Effacer le tchat",
"CHAT.Export": "Exporter le contenu du tchat",
"CHAT.FlushTitle": "Supprimer le contenu du tchat",
"CHAT.FlushWarning": "Tous les messages contenus dans le tchat seront définitivement supprimés.",
"CHAT.InvalidCommand": "{command} n'est pas une commande valide.",
"CHAT.Title": "Tchat",
"CHAT.To": "À",
"CHAT.PopoutMessage": "Ouvrir le message en fenêtre",
"CHAT.RevealMessage": "Révéler à tous",
"CHAT.ConcealMessage": "Rendre privé",
"CHAT.RollBlind": "Uniquement le MJ",
"CHAT.RollDefault": "Jet visible par",
"CHAT.RollPublic": "Tout le monde",
"CHAT.RollPrivate": "Juste le MJ et moi",
"CHAT.RollSelf": "Uniquement moi",
"CHAT.RollTables": "Tables Aléatoires",
"CHAT.PrivateRollContent": "{user} a effectué un lancer de dés de type privé",

"COMBAT.Begin": "Commencer le combat",
"COMBAT.Create": "Créer une rencontre",
"COMBAT.Delete": "Supprimer la rencontre",
"COMBAT.Encounter": "Rencontre",
"COMBAT.EncounterPrevious": "Activer la rencontre précédente",
"COMBAT.EncounterNext": "Activer la rencontre suivante",
"COMBAT.End": "Terminer le Combat",
"COMBAT.InitiativeRoll": "Jet d'initiative",
"COMBAT.InitiativeReset": "Réinitialiser l'initiative",
"COMBAT.EndTitle": "Rencontre terminée ?",
"COMBAT.EndConfirmation": "Mettre fin à cette rencontre et abandonner le suivi des tours ?",
"COMBAT.Linked": "Lié à la scène, cliquez pour délier",
"COMBAT.None": "Aucune rencontre active",
"COMBAT.NoneActive": "Il n'y a aucune rencontre active dans la scène que vous regardez actuellement.",
"COMBAT.NoneRemaining": "Il ne reste aucun combattant dans cette rencontre qui ne soit pas vaincu.",
"COMBAT.NotStarted": "Combat non commencé",
"COMBAT.Resource": "Ressource suivie",
"COMBAT.ResourceHint": "Choisir une ressource à suivre pour chaque combattant.",
"COMBAT.Round": "Round",
"COMBAT.Rounds": "Rounds",
"COMBAT.RoundPrev": "Round précédent",
"COMBAT.RoundNext": "Prochain round",
"COMBAT.RollNPC": "Lancer pour tous les PNJs",
"COMBAT.RollAll": "Lancer pour tous",
"COMBAT.RollsInitiative": "{name} lance pour l'initiative!",
"COMBAT.Settings": "Paramètres du Combat Tracker",
"COMBAT.SettingsSave": "Sauvegarder les paramètres du Combat Tracker",
"COMBAT.SidebarTitle": "Combat Tracker",
"COMBAT.SkipDefeated": "Ignorer les hors-combats",
"COMBAT.SkipDefeatedHint": "Ignorer automatiquement les combattants marqués hors-combat",
"COMBAT.ToggleVis": "Basculer le mode de visibilité",
"COMBAT.ToggleDead": "Marquer hors-combat",
"COMBAT.Turn": "Tour",
"COMBAT.Turns": "Tours",
"COMBAT.TurnEnd": "Fin du tour",
"COMBAT.TurnNext": "Tour suivant",
"COMBAT.TurnPrev": "Tour précédent",
"COMBAT.UnknownCombatant": "Combattant inconnu",
"COMBAT.Unlinked": "Combat non lié, cliquez pour lier à la scène",

"COMBAT.CombatantActor": "Personnage représenté",
"COMBAT.CombatantCreate": "Créer combattant",
"COMBAT.CombatantDefeated": "Vaincu",
"COMBAT.CombatantHidden": "Caché",
"COMBAT.CombatantImage": "Vignette",
"COMBAT.CombatantInitiative": "Valeur d'initiative",
"COMBAT.CombatantStatus": "Statut du combattant",
"COMBAT.CombatantUpdate": "Mettre à jour le combattant",
"COMBAT.CombatantName": "Nom affiché",
"COMBAT.CombatantRemove": "Enlever le combattant",
"COMBAT.CombatantClear": "Réinitialiser l'initiative",
"COMBAT.CombatantReroll": "Relancer l'initiative",
"COMBAT.CombatantToken": "Token lié",
"COMBAT.CombatantNotInScene": "Le combattant {name} n'est pas présent sur la scène active que vous affichez.",

"COMPENDIUM.Name": "Nom du compendium",
"COMPENDIUM.Create": "Créer un compendium",
"COMPENDIUM.CreateHint": "Créer un nouveau compendium pour le monde actuel.",
"COMPENDIUM.Delete": "Supprimer le compendium",
"COMPENDIUM.DeleteWarning": "Ce compendium sera définitivement supprimé et ne pourra pas être restauré.",
"COMPENDIUM.DeleteEntry": "Supprimer l'entité",
"COMPENDIUM.DeleteEntryWarning": "Cette entité du compendium et ses données seront définitivement supprimées.",
"COMPENDIUM.Duplicate": "Dupliquer le compendium",
"COMPENDIUM.DuplicateTitle": "Nouveau titre",
"COMPENDIUM.DuplicateHint": "Vous pouvez dupliquer ce compendium dans votre monde afin de disposer d'une copie locale de son contenu que vous pouvez modifier en toute sécurité.",
"COMPENDIUM.ErrorRequireTitle": "Vous devez donner un titre au nouveau compendium de monde.",
"COMPENDIUM.ImportAll": "Importer tout le contenu",
"COMPENDIUM.ImportAllHint": "Importer tout le contenu de ce compendium dans un dossier existant ou un nouveau dossier. Noter bien qu'importer un gros compendium aura un impact négatif sur les performances.",
"COMPENDIUM.ImportAllStart": "Importation en cours de {number} {type} dans le dossier {folder}. Soyez patient.",
"COMPENDIUM.ImportAllFinish": "Importation réussie de {number} {type} dans le dossier {folder}.",
"COMPENDIUM.ImportEntry": "Importer l'entité",
"COMPENDIUM.SidebarTitle": "Compendium",
"COMPENDIUM.Type": "Type d'entité",
"COMPENDIUM.TypeHint": "Chaque compendium ne porte qu'un type spécifique d'entité.",
"COMPENDIUM.ToggleVisibility": "Modifier la visibilité",
"COMPENDIUM.ToggleLocked": "Modifier le verrouillage",
"COMPENDIUM.ToggleLockedWarning": "Vous allez débloquer l'édition de ce compendium qui n'est pas lié à ce Monde. Toute modification que vous apportez à ce compendium peut être perdue si le système ou le module qui en est propriétaire est mis à jour. Vous pouvez dupliquer ce compendium pour en avoir une version liée à votre monde et donc indépendante des évolutions de systèmes ou de modules. Souhaitez-vous poursuivre ?",

"CONTROLS.Title": "Liste des raccourcis",
"CONTROLS.Instructions": "Décrit les commandes courantes du clavier et de la souris. Certaines commandes surlignées en violet clair ne sont accessibles qu'à un utilisateur ayant les droits de niveau 'Maître du Jeu'",
"CONTROLS.GroupToken": "Contrôles des tokens",
"CONTROLS.BasicSelect": "Sélection de tokens",
"CONTROLS.TargetSelect": "Sélection de cibles",
"CONTROLS.BasicMeasure": "Règle",
"CONTROLS.GroupMeasure": "Outils de gabarits",
"CONTROLS.MeasureType": "Type de gabarit",
"CONTROLS.MeasureBorder": "Couleur de la bordure",
"CONTROLS.MeasureConfigHint": "Configurer le placement et l'affichage du gabarit.",
"CONTROLS.MeasureCircle": "Gabarit circulaire",
"CONTROLS.MeasureCone": "Gabarit conique",
"CONTROLS.MeasureRect": "Gabarit rectangulaire",
"CONTROLS.MeasureRay": "Gabarit linéaire",
"CONTROLS.MeasureClear": "Supprimer tous les gabarits",
"CONTROLS.MeasureTemplate": "Texture du gabarit",
"CONTROLS.GroupTile": "Outils de tuile",
"CONTROLS.TileSelect": "Sélection de tuile",
"CONTROLS.TilePlace": "Poser une tuile",
"CONTROLS.TileForeground": "Calque au premier plan",
"CONTROLS.TileBrowser": "Bibliothèque des tuiles",
"CONTROLS.GroupDrawing": "Outils de dessin",
"CONTROLS.DrawingSelect": "Sélection de dessin",
"CONTROLS.DrawingRect": "Rectangle",
"CONTROLS.DrawingEllipse": "Ellipse",
"CONTROLS.DrawingPoly": "Polygone",
"CONTROLS.DrawingFree": "Main levée",
"CONTROLS.DrawingText": "Texte",
"CONTROLS.DrawingClear": "Supprimer tous les dessins",
"CONTROLS.DrawingConfig": "Configurer l'outil de dessin",
"CONTROLS.GroupWall": "Outils de mur",
"CONTROLS.WallDraw": "Mur simple",
"CONTROLS.WallInvisible": "Mur invisible",
"CONTROLS.WallTerrain": "Mur de terrain",
"CONTROLS.WallEthereal": "Mur éthéré",
"CONTROLS.WallDoors": "Porte",
"CONTROLS.WallSecret": "Porte secrète",
"CONTROLS.WallSelect": "Sélection de murs rectangulaire",
"CONTROLS.WallSnap": "Forcer le positionnement sur la grille",
"CONTROLS.WallClone": "Cloner les murs",
"CONTROLS.WallClear": "Supprimer tous les murs",
"CONTROLS.GroupLighting": "Outils de lumière",
"CONTROLS.LightDraw": "Créer une source de lumière",
"CONTROLS.LightClear": "Supprimer toutes les lumières",
"CONTROLS.LightReset": "Réinitialiser le brouillard de guerre",
"CONTROLS.LightDay": "Transition vers la lumière du jour",
"CONTROLS.LightNight": "Transition vers l'obscurité",
"CONTROLS.FOWResetTitle": "Réinitialiser le brouillard de guerre exploré",
"CONTROLS.FOWResetDesc": "Cela va réinitialiser les brouillards de guerre pour cette scène pour tous les Joueurs.",
"CONTROLS.GroupSound": "Outils de son d'ambiance",
"CONTROLS.SoundDraw": "Créer un son d'ambiance",
"CONTROLS.SoundPreview": "Pré-écoute",
"CONTROLS.SoundClear": "Supprimer tous les sons",
"CONTROLS.GroupNotes": "Notes",
"CONTROLS.NoteSelect": "Sélection de notes",
"CONTROLS.NoteToggle": "Afficher les notes",
"CONTROLS.NoteClear": "Supprimer toutes les notes",
"CONTROLS.ClearAll": "Supprimer tous les objets",
"CONTROLS.ClearAllHint": "Supprimer définitivement tous les objets de type {type} de la scène?",
"CONTROLS.HeaderGame": "Raccourcis - Général",
"CONTROLS.HeaderGameNotes": "Raccourcis s'appliquant aux fonctionnalités de FVTT.",
"CONTROLS.HeaderCanvas": "Raccourcis - Scènes",
"CONTROLS.HeaderCanvasNotes": "Raccourcis s'appliquant aux interactions avec les différents objets/calques (layer) de la scène.",
"CONTROLS.HeaderObjects": "Outils de positionnement",
"CONTROLS.HeaderObjectsNotes": "Raccourcis s'appliquant aux objets placés sur la scène.",
"CONTROLS.HeaderSpecial": "Raccourcis spécifiques",
"CONTROLS.HeaderSpecialNotes": "Raccourcis dédiés spécifiquement à certaines interactions.",
"CONTROLS.MouseControls": "Souris",
"CONTROLS.KeyboardControls": "Clavier",
"CONTROLS.GameMenu": "Ouvrir le menu",
"CONTROLS.GameClose": "Fermer les fenêtres ouvertes",
"CONTROLS.GamePause": "Mettre en pause (MJ)",
"CONTROLS.CanvasCancel": "Annuler les déplacements en attente",
"CONTROLS.CanvasMove": "Déplacer un objet",
"CONTROLS.CanvasPan": "Positionner la scène",
"CONTROLS.CanvasSelect": "Sélectionner un Objet",
"CONTROLS.CanvasSelectAll": "Sélectionner tous les objets",
"CONTROLS.CanvasSelectMany": "Ajouter ou Supprimer les Objets sélectionnés",
"CONTROLS.CanvasLeftDrag": "Utiliser l'outil actif",
"CONTROLS.CanvasSelectCancel": "Annule le glisser en cours",
"CONTROLS.CanvasZoom": "Zoomer sur la scène",
"CONTROLS.CharacterSheet": "Ouvrir la feuille de personnage",
"CONTROLS.LeftClick": "Clic gauche",
"CONTROLS.LeftClick2": "Double clic gauche",
"CONTROLS.LeftDrag": "Clic gauche glisser-déplacer",
"CONTROLS.Double": "Double",
"CONTROLS.RightClick": "Clic droit",
"CONTROLS.Drag": "Glisser",
"CONTROLS.Drop": "Déposer",
"CONTROLS.During": "pendant",
"CONTROLS.KeyHighlight": "Identifier les objets",
"CONTROLS.KeyPan": "Déplacer la scène",
"CONTROLS.KeyZoomIn": "Zoom avant",
"CONTROLS.KeyZoomOut": "Zoom arrière",
"CONTROLS.KeyCycle": "Ràz Vue ou aller au token (cycle)",
"CONTROLS.KeyMove": "Déplacer au clavier (tokens ou tuiles)",
"CONTROLS.KeyMoveDiag": "Mouvement en diagonal",
"CONTROLS.KeyMoveFace": "Orientation",
"CONTROLS.KeyDelete": "Supprimer les objets sélectionnés",
"CONTROLS.KeyCopy": "Copier les éléments de la scène",
"CONTROLS.KeyPaste": "Coller les éléments de la scène",
"CONTROLS.KeyUndo": "Annuler la dernière opération sur la scène",
"CONTROLS.KeyHotbar": "Raccourcis de la barre de lancement rapide",
"CONTROLS.RulerTitle": "Affichage des distances",
"CONTROLS.RulerMeasure": "Afficher la distance avec une règle",
"CONTROLS.RulerWaypoint": "Placer un point intermédiaire de mesure",
"CONTROLS.RulerMove": "Déplacer le Token en suivant le chemin mesuré",
"CONTROLS.RulerWhile": "en mesurant depuis le token",
"CONTROLS.ObjectSheet": "Ouvrir la feuille associée à l'objet",
"CONTROLS.ObjectHUD": "Afficher le HUD de l'objet (si applicable)",
"CONTROLS.ObjectConfig": "Ouvrir la feuille de configuration de l'objet",
"CONTROLS.ObjectDrag": "Déplacer l'objet contrôlé",
"CONTROLS.ObjectDragCancel": "Annuler l'action sur la scène en cours",
"CONTROLS.ObjectRotateSlow": "Tourner l'objet (précis)",
"CONTROLS.ObjectRotateFast": "Tourner l'objet (rapide)",
"CONTROLS.ObjectNoSnap": "Ne pas tenir compte du positionnement attaché à la grille",
"CONTROLS.MouseWheel": "Molette",
"CONTROLS.DragDrop": "Glisser-déposer",
"CONTROLS.TokenHeader": "Contrôles des tokens",
"CONTROLS.TokenPlaceHidden": "Placer un token caché (MJ)",
"CONTROLS.TokenTarget": "Sélectionner un token comme cible (non possédé)",
"CONTROLS.TokenPlaceHiddenCreate": "lors de la création d'un token.",
"CONTROLS.WallHeader": "Contrôles des murs",
"CONTROLS.WallChain": "Ajouter des murs contigus",
"CONTROLS.WallSelectChain": "Sélectionner des murs contigus",
"CONTROLS.DrawingHeader": "Contrôles des outils de dessin",
"CONTROLS.DrawingTextConfirm": "Confirmer le texte du dessin saisis",
"CONTROLS.DrawingTextCancel": "Annuler le texte de dessins saisis ",

"DICE.ErrorNonNumeric": "L'expression de construction du lancer de dés {formula} n'a pas produit de résultat numérique.",
"DICE.WarnMissingData": "Le paramètre {match} n'était pas dans la liste des données fournies.",

"DOCUMENT.Create": "Créer ({type})",
"DOCUMENT.Delete": "Supprimer {type}",
"DOCUMENT.New": "{type} non défini(e)",
"DOCUMENT.Update": "Mettre à jour ({type})",

"DOCUMENT.ImportData": "Importer les données",
"DOCUMENT.ImportDataError": "Vous n'avez pas téléchargé de fichier de données!",
"DOCUMENT.ImportDataHint1": "Vous pouvez importer les données de ce/cette {document} à partir d'un fichier JSON exporté.",
"DOCUMENT.ImportDataHint2": "Cette opération met à jour les données de {name} et ne peut être annulée.",
"DOCUMENT.ImportSource": "Données sources",
"DOCUMENT.Imported": "Les données de type {document} : \"{name}\" ont été importées avec succès depuis le JSON.",
"DOCUMENT.SheetPermissionWarn": "Vous n'avez pas la permission de voir cette feuille de {document}.",
"DOCUMENT.UsePermissionWarn": "Vous n'avez pas la permission d'utiliser ce {document}.",

"DOCUMENT.ActiveEffect": "Effet actif",
"DOCUMENT.ActiveEffects": "Effet actif",
"DOCUMENT.Actor": "Personnage",
"DOCUMENT.Actors": "Personnages",
"DOCUMENT.Adventure": "Aventure",
"DOCUMENT.Adventures": "Aventures",
"DOCUMENT.AmbientLight": "Lumière ambiante",
"DOCUMENT.AmbientLights": "Lumières ambiantes",
"DOCUMENT.AmbientSound": "Son ambiant",
"DOCUMENT.AmbientSounds": "Sons ambiants",
"DOCUMENT.Card": "Carte",
"DOCUMENT.Cards": "Jeu de cartes",
"DOCUMENT.CardsPlural": "Jeux de cartes",
"DOCUMENT.ChatMessage": "Message du Tchat",
"DOCUMENT.ChatMessages": "Messages du Tchat",
"DOCUMENT.Combat": "Rencontre de combat",
"DOCUMENT.Combats": "Rencontres de combat",
"DOCUMENT.Combatant": "Combattant",
"DOCUMENT.Combatants": "Combattants",
"DOCUMENT.Drawing": "Dessin",
"DOCUMENT.Drawings": "Dessins",
"DOCUMENT.Folder": "Dossier",
"DOCUMENT.Folders": "Dossiers",
"DOCUMENT.Item": "Objet",
"DOCUMENT.Items": "Items",
"DOCUMENT.JournalEntry": "Article",
"DOCUMENT.JournalEntries": "Journal",
"DOCUMENT.Macro": "Macro",
"DOCUMENT.Macros": "Macros",
"DOCUMENT.MeasuredTemplate": "Gabarit de mesure",
"DOCUMENT.MeasuredTemplates": "Gabarits de mesure",
"DOCUMENT.Note": "Note",
"DOCUMENT.Notes": "Notes",
"DOCUMENT.Playlist": "Playlist",
"DOCUMENT.Playlists": "Playlists",
"DOCUMENT.PlaylistSound": "Piste de la playlist",
"DOCUMENT.PlaylistSounds": "Pistes de la playlist",
"DOCUMENT.Scene": "Scène",
"DOCUMENT.Scenes": "Scènes",
"DOCUMENT.Setting": "Paramètre",
"DOCUMENT.Settings": "Paramètres",
"DOCUMENT.RollTable": "Table aléatoire",
"DOCUMENT.RollTables": "Tables aléatoires",
"DOCUMENT.TableResult": "Résultat de la table",
"DOCUMENT.TableResults": "Résultats de la table",
"DOCUMENT.Tile": "Tuile",
"DOCUMENT.Tiles": "Tuiles",
"DOCUMENT.Token": "Token",
"DOCUMENT.Tokens": "Tokens",
"DOCUMENT.User": "Joueur",
"DOCUMENT.Users": "Joueurs",
"DOCUMENT.Wall": "Mur",
"DOCUMENT.Walls": "Murs",

"DRAWING.ConfigTitle": "Configuration de l'outil dessin",
"DRAWING.ConfigDefaultTitle": "Configuration par défaut du dessin",
"DRAWING.SubmitDefault": "Sauvegarder",
"DRAWING.SubmitCreate": "Créer un dessin",
"DRAWING.SubmitUpdate": "Mettre à jour le dessin",
"DRAWING.SubmitReset": "Configuration par défaut",
"DRAWING.TabPosition": "Position",
"DRAWING.TabLines": "Lignes",
"DRAWING.TabFill": "Remplissage",
"DRAWING.TabText": "Texte",
"DRAWING.NotePosition": "Ajuster les paramètres de position et de visibilité du dessin.",
"DRAWING.NoteLines": "Ajuster les paramètres du contour extérieur du dessin.",
"DRAWING.NoteFill": "Ajuster les paramètres de remplissage intérieur du dessin.",
"DRAWING.NoteText": "Ajuster les paramètres de libellé texte appliqué au dessin (si existant).",
"DRAWING.Author": "Auteur",
"DRAWING.PosX": "Position X",
"DRAWING.PosY": "Position Y",
"DRAWING.Width": "Largeur",
"DRAWING.Height": "Hauteur",
"DRAWING.Rotation": "Rotation",
"DRAWING.ZIndex": "Index Z",
"DRAWING.LineWidth": "Largeur du trait",
"DRAWING.StrokeColor": "Couleur du trait",
"DRAWING.LineOpacity": "Opacité du trait",
"DRAWING.SmoothingFactor": "Facteur de lissage",
"DRAWING.SmoothingFactorHint": "Pour le Dessin à main levée, le facteur de lissage contrôle l'intensité du lissage appliqué aux courbes.",
"DRAWING.FillTypes": "Types de Remplissage",
"DRAWING.FillTypeNone": "Aucun",
"DRAWING.FillTypeSolid": "Solide",
"DRAWING.FillTypePattern": "Motif",
"DRAWING.FillColor": "Couleur de remplissage",
"DRAWING.FillOpacity": "Opacité du remplissage",
"DRAWING.FillTexture": "Texture du remplissage",
"DRAWING.TextLabel": "Libellé du texte",
"DRAWING.FontFamily": "Famille de la police",
"DRAWING.FontSize": "Taille de la police",
"DRAWING.TextColor": "Couleur du texte",
"DRAWING.TextOpacity": "Opacité du texte",

"EFFECT.MODE_CUSTOM": "Personnalisation",
"EFFECT.MODE_MULTIPLY": "Multiplier",
"EFFECT.MODE_ADD": "Ajouter",
"EFFECT.MODE_DOWNGRADE": "Baisser",
"EFFECT.MODE_UPGRADE": "Augmenter",
"EFFECT.MODE_OVERRIDE": "Surcharger",
"EFFECT.ConfigTitle": "Configurer les effets visuels",
"EFFECT.TabDetails": "Détails",
"EFFECT.TabDuration": "Durée",
"EFFECT.TabEffects": "Effets",
"EFFECT.Label": "Libellé de l'effet",
"EFFECT.Icon": "Icône de l'effet",
"EFFECT.IconTint": "Teinte des icônes",
"EFFECT.Disabled": "Effet suspendu",
"EFFECT.Origin": "Origine de l'effet",
"EFFECT.Transfer": "Transférer l'effet au personnage",
"EFFECT.DurationSecs": "Durée de l'effet (secondes)",
"EFFECT.StartTime": "Début de l'effet",
"EFFECT.DurationTurns": "Durée de l'effet (tours)",
"EFFECT.Combat": "Rencontre",
"EFFECT.StartTurns": "Tour de départ de l'effet",
"EFFECT.ChangeKey": "Clé d'attribut",
"EFFECT.ChangeMode": "Changer le mode",
"EFFECT.ChangeValue": "Valeur de l'effet",
"EFFECT.Submit": "Appliquer les changements",

"EFFECT.StatusAsleep": "Endormi",
"EFFECT.StatusDead": "Mort",
"EFFECT.StatusUnconscious": "Inconscient",
"EFFECT.StatusStunned": "Etourdi",
"EFFECT.StatusProne": "À terre",
"EFFECT.StatusRestrained": "Entravé",
"EFFECT.StatusParalysis": "Paralysé",
"EFFECT.StatusFlying": "En vol",
"EFFECT.StatusBlind": "Aveugle",
"EFFECT.StatusDeaf": "Sourd",
"EFFECT.StatusSilenced": "Réduit au silence",
"EFFECT.StatusFear": "Apeuré",
"EFFECT.StatusBurning": "Brûlant",
"EFFECT.StatusFrozen": "Gelé",
"EFFECT.StatusShocked": "Choqué",
"EFFECT.StatusCorrode": "Corrodé",
"EFFECT.StatusBleeding": "Saignement",
"EFFECT.StatusDisease": "Malade",
"EFFECT.StatusPoison": "Empoisonné",
"EFFECT.StatusRadiation": "Radioactif",
"EFFECT.StatusRegen": "Régénère",
"EFFECT.StatusDegen": "Dégénère",
"EFFECT.StatusUpgrade": "Amélioré",
"EFFECT.StatusDowngrade": "Affaibli",
"EFFECT.StatusTarget": "Ciblé",
"EFFECT.StatusMarked": "Marqué",
"EFFECT.StatusCursed": "Maudit",
"EFFECT.StatusBlessed": "Béni",
"EFFECT.StatusFireShield": "Protection contre le feu",
"EFFECT.StatusIceShield": "Protection contre le froid",
"EFFECT.StatusMagicShield": "Protection magique",
"EFFECT.StatusHolyShield": "Protection sacrée",

"ERROR.BrowserVersion": "Foundry Virtual Tabletop nécessite les dernières fonctions JavaScript qui ne sont pas prises en charge pour la version de {browser} inférieure à {minimum}. Vous utilisez la version {version} de {browser}. Veuillez mettre à jour ou utiliser un autre navigateur.",
"ERROR.ElectronVersion": "Vous utilisez une ancienne version du client Electron de Foundry Virtual Tabletop. Pour des performances optimales, nous vous recommandons de télécharger à nouveau la version de Foundry Virtual Tabletop que vous souhaitez et de procéder à une réinstallation complète du logiciel.",
"ERROR.LowResolution": "Foundry Virtual Tabletop exige une résolution d'écran minimale de {reqWidth}px par {reqHeight}px ou plus. Votre écran est actuellement de largeur {width}px par hauteur {height}px. Avec vos paramètres d'affichage actuels, de nombreuses fonctions peuvent ne pas fonctionner correctement.",
"ERROR.NoWebGL": "Votre navigateur ne prend actuellement pas en charge le rendu WebGL, qui est requis par Foundry Virtual Tabletop. Le rendu matériel et WebGL doivent être activés dans le navigateur.",
"ERROR.NoWebGL2": "Votre navigateur ne prend pas actuellement en charge le rendu WebGL Version 2,  qui est recommandé par Foundry Virtual Tabletop.",
"ERROR.BackgroundTextureSize": "L'image de fond de la scène mesure {width}&times;{height}px. L'une de ces dimensions ou les deux dépassent la taille maximale autorisée de {max}px.",
"ERROR.InvalidAdminKey": "Le mot de passe Administrateur fournie n'est pas valide. Si vous avez oublié votre mot de passe, vous devrez supprimer manuellement le fichier <strong>Config/admin.txt</strong> du répertoire des données utilisateur.</p>",
"ERROR.TokenCollide": "Déplacement impossible : le mouvement demandé au Token se heurte au moins à un mur.",
"ERROR.LoadPackages": "Impossible de se connecter au serveur de FoundryVTT pour lister les packages. Assurez-vous que votre application autorise les connexions sortantes",
"ERROR.NoTargetUsersForWhisper": "Destinataire non reconnu pour ce chuchotement. Vérifiez l'orthographe ou essayez \"/w [Nom d'utilisateur]\" à la place.",
"ERROR.CantWhisper": "Vous n'avez pas la permission d'envoyer par Tchat des messages chuchotés à d'autres joueurs.",
"ERROR.RendererNotDetected": "Le moteur de rendu de votre GPU n'a pas pu être identifié, des problèmes de performance inattendus peuvent survenir.",
"ERROR.NoHardwareAcceleration": "L'accélération matérielle n'est pas activée dans votre navigateur Web. Les performances du Foundry Virtual Tabletop s'en trouveraient gravement affectées. Veillez à activer l'accélération matérielle dans les paramètres de votre navigateur.",

"WARNING.GridConfigNoBG": "Vous utilisez l'outil de configuration de la grille pour une scène sans image de fond. Cela n'est pas recommandé actuellement et peut produire des résultats imprévisibles.",
"WARNING.ForegroundDimensionsMismatch": "Les dimensions de votre image du calque de premier plan configurée ne correspondent pas aux dimensions de l'image d'arrière-plan pour cette scène. Le premier plan a été redimensionné, ce qui peut avoir des résultats indésirables.",

"EULA.Acknowledge": "Description du CLUF ",
"EULA.Agree": "Accepter le CLUF",
"EULA.AgreeHint": "J'accepte les accords définis par le CLUF",
"EULA.Decline": "Je refuse",

"FILES.CreateDirectory": "Créer un dossier",
"FILES.CreateSubfolder": "Créer un sous-dossier",
"FILES.TogglePrivacy": "Basculer en mode privé cette arborescence",
"FILES.DisplayMode": "Mode d'affichage",
"FILES.DisplayModeList": "Liste",
"FILES.DisplayModeTiles": "Tuiles",
"FILES.DisplayModeThumbs": "Vignettes",
"FILES.DisplayModeImages": "Images",
"FILES.FilterLabel": "Filtrer",
"FILES.S3Label": "compartiment S3 (S3 Bucket) ",
"FILES.Selected": "Sélection",
"FILES.SelectFile": "Sélectionner le fichier",
"FILES.SelectFolder": "Sélectionner le répertoire",
"FILES.TileSize": "Taille de la grille pour l'élément (asset)",
"FILES.TileSizeHint": "Indiquez la taille de la grille en pixels de la tuile d'origine afin qu'elle soit automatiquement redimensionnée lorsqu'elle est placée sur votre scène active.",
"FILES.NoResults": "Aucun résultat dans ce répertoire",
"FILES.Upload": "Télécharger",
"FILES.Search": "Rechercher",
"FILES.ErrorTooLarge": "Le fichier que vous avez tenté de télécharger est trop volumineux pour le serveur proxy .",
"FILES.ErrorSomethingWrong": "Il y a eu un problème avec la demande de téléchargement de fichiers.",
"FILES.WarnUploadModules": "Vous avez téléchargé des fichiers dans un répertoire de module ou de système. Généralement c'est <strong>dangereux</strong> car les mises à jour du système ou du module vont supprimer ces fichiers.",
"FILES.TitleFolder": "Liste des répertoires",
"FILES.TitleImageVideo": "Explorateur d'images ou de vidéos",
"FILES.TitleImage": "Explorateur d'images",
"FILES.TitleVideo": "Explorateur de vidéos",
"FILES.TitleAudio": "Explorateur de fichiers audio",
"FILES.SourceUser": "Données de l'utilisateur",
"FILES.SourceCore": "Données du Core",
"FILES.SourceS3": "Amazon S3",
"FILES.BrowseTooltip": "Parcourir les fichiers",

"GAME.Paused": "Jeu en pause",
"GAME.PausedWarning": "Vous ne pouvez pas effectuer cette action tant que le jeu est en pause.",

"INFO.SceneViewCanvasDisabled": "La scène \"{name}\" est sélectionnée mais n'est pas affichée (option de la configuration générale 'Scène du jeu désactivée' coché)",

"INVITATIONS.Copied": "Le lien d'invitation a été copié dans le presse-papier",
"INVITATIONS.Instructions": "Partager les liens d'invitation ci-dessous avec les utilisateurs (joueurs). Le lien d'invitation local est destiné aux utilisateurs de votre réseau local tandis que le lien 'Internet' permet de se connecter sur le port configuré depuis l'exterieur de votre réseau.",
"INVITATIONS.Internet": "Internet",
"INVITATIONS.Local": "Réseau local",
"INVITATIONS.Title": "Liens d'invitations à la partie",
"INVITATIONS.OpenConnection": "Votre connexion semble être ouverte",
"INVITATIONS.ClosedConnection": "Votre connexion semble être fermée",
"INVITATIONS.UnknownConnection": "Nous n'avons pas pu déterminer l'état de votre connexion",

"ITEM.ViewArt": "Voir l'image de l'objet",

"HUD.AssignStatusEffects": "Attribuer des effets d'état",
"HUD.ToggleCombatState": "Modifier l'état de combat",
"HUD.ToggleVis": "Basculer la visibilité",
"HUD.ToggleLock": "Basculer le verrouillage",
"HUD.ToFront": "Avancer au premier plan",
"HUD.ToBack": "Reculer au second plan",
"HUD.TileOverhead": "Tuile aérienne",
"HUD.TileUnderfoot": "Tuile de sol",
"HUD.TilePlay": "Jouer la vidéo",
"HUD.TilePause": "Mettre en pause la vidéo",

"JOURNAL.ModeText": "Texte",
"JOURNAL.ModeImage": "Image",
"JOURNAL.ActionShow": "Montrer aux joueurs ",
"JOURNAL.ActionShowSuccess": " {title} ({mode}) a été montré à/aux {which} les joueurs.",
"JOURNAL.Submit": "Sauvegarder la saisie",
"JOURNAL.AnchorCenter": "Centrer",
"JOURNAL.AnchorBottom": "En bas",
"JOURNAL.AnchorTop": "En haut",
"JOURNAL.AnchorLeft": "A gauche",
"JOURNAL.AnchorRight": "A droite",

"KEYBINDINGS.ActionCategories": "Catégories des raccourcis",
"KEYBINDINGS.AllActions": "Tous les raccourcis",
"KEYBINDINGS.AddBinding": "Ajouter un raccourci",
"KEYBINDINGS.EditBinding": "Éditer le raccourci",
"KEYBINDINGS.SaveBinding": "Sauvegarder",
"KEYBINDINGS.DeleteBinding": "Supprimer le raccourci",
"KEYBINDINGS.Uneditable": "Raccourcis non modifiable",
"KEYBINDINGS.ActionFilter": "Filtre :",
"KEYBINDINGS.ActionName": "raccourcis",
"KEYBINDINGS.ResetTitle": "Réinitialisation des raccourcis par défaut ",
"KEYBINDINGS.ResetWarning": "Souhaitez-vous réinitialiser toutes les combinaisons de touches (raccourcis) à leurs valeurs par défaut ?",
"KEYBINDINGS.Conflict": "Conflits potentiels avec {conflicts}",
"KEYBINDINGS.CoreKeybindings": "Raccourcis du core Foundry",
"KEYBINDINGS.CoreMouse": "Commandes de la souris",
"KEYBINDINGS.Restricted": "Maître de jeu uniquement",
"KEYBINDINGS.ReservedModifiers": "Modificateurs particuliers : {modifiers}",
"KEYBINDINGS.HowToEdit": "Utilisez {icon} ou le double-clic pour modifier la valeur.",
"KEYBINDINGS.CycleView": "Vue d'ensemble du cycle",
"KEYBINDINGS.Dismiss":  "Renvoyer",
"KEYBINDINGS.MoveAlongMeasuredRuler": "Avancez avec la règle",
"KEYBINDINGS.Pause": "Pause",
"KEYBINDINGS.Delete": "Supprimer",
"KEYBINDINGS.Highlight": "Mettre en évidence",
"KEYBINDINGS.SelectAll": "Sélectionner tout",
"KEYBINDINGS.Undo": "Annuler",
"KEYBINDINGS.Copy": "Copier",
"KEYBINDINGS.Paste": "Coller",
"KEYBINDINGS.Target": "Cible",
"KEYBINDINGS.ToggleCharacterSheet": "Basculer sur la feuille de personnage",
"KEYBINDINGS.PTTKey": "Touche 'Push-to-Talk/Mute'",
"KEYBINDINGS.PanUp": "Déplacer vers le haut",
"KEYBINDINGS.PanLeft": "Déplacer vers la gauche",
"KEYBINDINGS.PanDown": "Déplacer vers le bas",
"KEYBINDINGS.PanRight": "Déplacer vers la droite",
"KEYBINDINGS.PanUpLeft": "Déplacer en diagonal haut-gauche",
"KEYBINDINGS.PanUpRight": "Déplacer en diagonal haut-droite",
"KEYBINDINGS.PanDownLeft": "Déplacer en diagonal bas-gauche",
"KEYBINDINGS.PanDownRight": "Déplacer en diagonal bas-droite",
"KEYBINDINGS.ZoomIn": "Zoom avant",
"KEYBINDINGS.ZoomOut": "Zoom arrière",
"KEYBINDINGS.ExecuteMacro": "Exécuter la macro",
"KEYBINDINGS.SwapMacroPage": "Passer au menu de la barre d'outils {page}",
"KEYBINDINGS.MustBeArray": "Doit être passer dans un tableau de valeurs",
"KEYBINDINGS.ErrorProtectedKey": "Impossible de 'binder' (associer à une touche) la clé protégée \"{key}\"",
"KEYBINDINGS.ErrorIllegalModifier": "La clé demandée \"{key}\" n'est pas une valeur valide pour KeyboardManager.MODIFIER_KEYS",
"KEYBINDINGS.ErrorReservedModifier": "Impossible de définir \"{key}\" comme 'bind' (association à un raccourcis), car cette action est réservée.",
        
"LIGHT.ConfigTitle": "Configuration des sources lumineuses",
"LIGHT.HeaderBasic": "Configuration",
"LIGHT.HeaderAdvanced": "Options avancées",
"LIGHT.HeaderAnimation": "Animation",
"LIGHT.Create": "Créer une source lumineuse",
"LIGHT.Update": "Mettre à jour la source lumineuse",
"LIGHT.Alpha": "Intensité de la couleur",
"LIGHT.Angle": "Angle d'émission",
"LIGHT.AngleHint": "Limitez l'angle d'émission de cette source lumineuse et configurez sa rotation.",
"LIGHT.Bright": "Intense",
"LIGHT.Color": "Couleur",
"LIGHT.ColorHint": "Appliquez une couleur à cette source lumineuse et configurez son intensité.",
"LIGHT.Coordinates": "Coordonnées",
"LIGHT.Contrast": "Contraste de l'arrière-plan",
"LIGHT.ContrastHint": "Permet de régler le contraste des surfaces d'arrière-plan qui sont éclairées par cette source lumineuse. La valeur par défaut pour une source lumineuse standard est 0.",
"LIGHT.DarknessRange": "Portée d'activation de l'obscurité",
"LIGHT.DarknessRangeHint": "Vous pouvez spécifier une plage de niveaux d'obscurité sur laquelle cette source de lumière sera visible.",
"LIGHT.Dim": "Faible",
"LIGHT.Gradual": "Illumination progressive",
"LIGHT.GradualHint": "Transition progressive de l'éclairage entre le clair, le faible et l'obscur.",
"LIGHT.Luminosity": "Luminosité",
"LIGHT.LuminosityHint": "Réglez la luminosité de cette source de lumière. Les lumières plus lumineuses sont moins atténuées par l'obscurité. La valeur par défaut pour une source de lumière standard est de 0,5.",
"LIGHT.Radius": "Rayon",
"LIGHT.RadiusHint": "Configurez la portée de cette source lumineuse avec un rayon de lumière intense inférieur au rayon de lumière faible (portée max de la source).",
"LIGHT.ResetAdvanced": " Réinitialiser les options avancées",
"LIGHT.Rotation": "Angle de rotation",
"LIGHT.Saturation": "Saturation de l'arrière-plan",
"LIGHT.SaturationHint": "Permet de régler la saturation des surfaces d'arrière-plan qui sont éclairées par cette source lumineuse. La valeur par défaut pour une source de lumière standard est 0.",
"LIGHT.Shadows": "Ombres d'arrière-plan",
"LIGHT.ShadowsHint": "Renforce l'intensité des couleurs sombres éclairées par cette source lumineuse. La valeur par défaut pour une source lumineuse standard est 0.",
"LIGHT.Vision": "Donne la vision",
"LIGHT.VisionHint": "Fournir une source supplémentaire de vision pour les tokens contrôlés.",
"LIGHT.Walls": "Contrainte par les murs",
"LIGHT.WallsHint": "Configurez si la zone d'effet de cette source de lumière est limitée par les murs à proximité.",
"LIGHT.ColorationTechnique": "Technique de coloration",
"LIGHT.ColorationTechniqueHint": "La technique de coloration appliquée à la source lumineuse apporte un mélange additif à l'apparence obtenue.",
"LIGHT.LegacyColoration": "Coloration héritée",
"LIGHT.AdaptiveLuminance": "Luminance adaptative",
"LIGHT.InternalHalo": "Halo interne",
"LIGHT.ExternalHalo": "Halo externe",
"LIGHT.ColorBurn": "Couleur exacerbée",
"LIGHT.InternalBurn": "Couleur interne exacerbée",
"LIGHT.ExternalBurn": "Couleur externe exacerbée",
"LIGHT.LowAbsorption": "Faible absorption",
"LIGHT.HighAbsorption": "Absorption élevée",
"LIGHT.InvertAbsorption": "Inverser l'absorption",
"LIGHT.AnimationType": "Type d'animation de la Lumière",
"LIGHT.AnimationHint": "Augmenter la vitesse d'animation accélère la lecture de l'animation, augmenter l'intensité de l'animation rend le motif de l'animation plus prononcé/dense.",
"LIGHT.AnimationSpeed": "Vitesse de l'animation",
"LIGHT.AnimationIntensity": "Intensité de l'animation",
"LIGHT.AnimationReverse": "Inversion de la direction",
"LIGHT.AnimationTorch": "Torche",
"LIGHT.AnimationPulse": "Pulsation",
"LIGHT.AnimationChroma": "Chroma",
"LIGHT.AnimationWave": "Onde pulsante",
"LIGHT.AnimationFog": "Brouillard tourbillonnant",
"LIGHT.AnimationSunburst": "Rayonnement solaire",
"LIGHT.AnimationLightDome": "Dôme de lumière",
"LIGHT.AnimationEmanation": "Emanation mystérieuse",
"LIGHT.AnimationEnergyField": "Champ énergétique",
"LIGHT.AnimationHexaDome": "Dôme d'hexagones",
"LIGHT.AnimationGhostLight": "Lumière fantomatique",
"LIGHT.AnimationRoilingMass": "Masse tournante (Obscurité)",
"LIGHT.AnimationBlackHole": "Trou noir (Ténèbres)",
"LIGHT.AnimationVortex": "Vortex",
"LIGHT.AnimationBewitchingWave": "Vague ensorcelante",
"LIGHT.AnimationSwirlingRainbow": "Arc-en-ciel tourbillonnant",
"LIGHT.AnimationRadialRainbow": "Arc-en-ciel radial",
"LIGHT.AnimationFairyLight": "Lumière féerique",

"MACRO.Delete": "Effacer la Macro",
"MACRO.DeleteWarning": "Cette macro sera définitivement supprimée pour tous les utilisateurs.",
"MACRO.Edit": "Editer la Macro",
"MACRO.Execute": "Exécuter la Macro",
"MACRO.Remove": "Enlever la Macro",
"MACRO.Save": "Sauvegarder la Macro",

"MENU.Reload": "Recharger",
"MENU.Logout": "Se déconnecter",
"MENU.Players": "Configurer les joueurs",
"MENU.Setup": "Menu Accueil",

"MODMANAGE.Bugs": "Rapports sur les bugs ou les problèmes",
"MODMANAGE.DeactivateAll": "Désactiver tous les Modules",
"MODMANAGE.Readme": "Documentation du Module",
"MODMANAGE.Title": "Gestionnaire de Modules",
"MODMANAGE.Instructions": "Toute modification des modules actifs rechargera la session en cours.",
"MODMANAGE.View": "Les Modules listés ci-dessous sont actuellement actifs dans ce monde.",
"MODMANAGE.None": "Aucun Module n'est disponible dans ce monde. Vous pouvez consulter cette liste, mais vous n'avez pas la permission de la modifier.",
"MODMANAGE.Search": "Filtrer (Modules)",
"MODMANAGE.Submit": "Sauvegarder les paramètres de Modules",
"MODMANAGE.Dependencies": "Dépendances",
"MODMANAGE.DepEnable": "Ce Module a {number} dépendances requises pour son bon fonctionnement. Souhaitez-vous également les activer ?",
"MODMANAGE.DepEnableCheck": "Activer le module et ses dépendances ?",
"MODMANAGE.DepDisable": "Ce Module a {number} dépendances qui ne sont potentiellement plus requises. Souhaitez-vous également les désactiver ?",
"MODMANAGE.DepDisableCheck": "Voulez-vous les désactiver également ?",
"MODMANAGE.DepNotInstalled": "La dépendance {missing} n'est pas installée !",
"MODMANAGE.DepMissing": "Vous avez activé le Module {module}, mais ses dépendances {missing} ne sont pas activées !",
"MODMANAGE.FilterAll": "Tous les Modules",
"MODMANAGE.FilterActive": "Modules actifs",
"MODMANAGE.FilterInactive": "Modules inactifs",
"MODMANAGE.Build": "Build",

"NOTE.AnchorPoint": "Point d'ancrage du texte",
"NOTE.ConfigTitle": "Configuration de la note",
"NOTE.Create": "Créer une note sur la scène",
"NOTE.EntryIcon": "Icône affiché",
"NOTE.FontSize": "Taille de la police",
"NOTE.FontFamily": "Famille de la police",
"NOTE.IconSize": "Taille de l'icône",
"NOTE.IconTint": "Teinte de l'icône",
"NOTE.TextLabel": "Titre affiché de la note",
"NOTE.TextColor": "Couleur du texte",
"NOTE.Update": "Mise à jour de la note",

"NUE.FirstLaunchBody": "Il semble que ce soit un nouveau monde. Pour commencer, vous devez d'abord ajouter les joueurs supplémentaires attendus via le menu <a class=\"nue-tab\" data-tab=\"settings\">Configuration des Joueurs</a>. Ensuite vous pourrez créer des <a class=\"nue-tab\" data-tab=\"actors\">Personnages</a> pour eux, ainsi que tout autre PJ/PNJ important que vous devez représenter. Les cartes et autres visuels peuvent être configurés à l'aide des <a class=\"nue-tab\" data-tab=\"scenes\">Scènes</a>, et les documents, notes et autres informations peuvent être créés dans des <a class=\"nue-tab\" data-tab=\"journal\">Articles</a>.",
"NUE.FirstLaunchHeader": "Pour commencer",
"NUE.FirstLaunchHint": "<i class=\"fas fa-info-circle\"></i> Ce message peut être extrait en cliquant dessus avec le bouton droit de la souris, vous pouvez également extraire tout l'onglet de chat en cliquant avec le bouton droit de la souris sur l'icône de la bulle de dialogue (menu du  haut). Cette dernière méthode (clic droit sur les icones du menu) permet de la même manière de faire apparaître n'importe quel autre onglet de la barre latérale dans une fenêtre indépendante.",
"NUE.FirstLaunchInvite": "Inviter vos joueurs",
"NUE.FirstLaunchInviteBody": "Lorsque tout est configuré et que vous êtes prêt à inviter vos joueurs, vous pouvez leur envoyer un lien vers votre monde depuis le <a class=\"nue-action\" data-action=\"invite\">Liens d'invitation</a>.",
"NUE.FirstLaunchKB": "N'oubliez pas d'explorer tous les onglets disponibles dans cette barre latérale, et pour plus d'informations, vous pouvez consulter la série <a href=\"https://foundryvtt.com/article/tutorial/\" target=\"_blank\">Gamemaster Tutorial</a> (en Anglais) dans la<a href=\"https://foundryvtt.com/kb/\" target=\"_blank\" >Base de connaissances</a>.",
"NUE.FirstLaunchTroubleshooting": "Si la boîte de dialogue Liens d'invitation indique que votre connexion est fermée, vous devrez peut-être configurer la redirection de port. Vous trouverez des instructions à ce sujet sur le site officiel : <a href=\"https://foundryvtt.com/article/port-forwarding/\" target=\"_blank\">Port Forwarding Guide</a> (en Anglais) ou sur le wiki en Français :  <a href=\"https://foundryvtt.wiki/fr/pour-commencer/pbcnx/\" target=\"_blank\">Impossible de se connecter à distance</a>. Si vous avez toujours besoin d'aide, vous êtes invité à rejoindre soit le Discord officiel <b>Anglais</b> et à poster un message dans <a href=\"https://discord.com/channels/170995199584108546\" target=\"_blank\">#install-and-connection</a> pour les problèmes d'invitation, <a href=\"https://discord.com/channels/170995199584108546\" target=\"_blank\">#troubleshooting</a> pour les problèmes généraux avec le logiciel, ou <a href=\"https://discord.com/channels/170995199584108546\" target=\"_blank\">#core-how-to</a> pour une aide plus générique sur Foundry VTT. Soit également trouver de l'aide sur le discord <b>francophone</b> de FoundryVTT : <a href=\"https://discord.gg/pPSDNJk\" target=\"_blank\">La Fonderie</a>.",

"PLAYERS.Title": "Joueurs",
"PLAYERS.CharSelect": "Sélectionner un personnage",
"PLAYERS.CharSelected": "Personnage sélectionné",
"PLAYERS.CharRelease": "Libérer le personnage",
"PLAYERS.ConfigTitle": "Configuration du joueur ",
"PLAYERS.PlayerColor": "Couleur du joueur",
"PLAYERS.PlayerAvatar": "Avatar du joueur",
"PLAYERS.PullToScene": "Amener à la scène",
"PLAYERS.SaveConfig": "Sauvegarder la configuration",
"PLAYERS.ViewAvatar": "Avatar du joueur",
"PLAYERS.Kick": "Ejecter le joueur",
"PLAYERS.Ban": "Bannir le joueur",
"PLAYERS.UnBan": "Enlever le bannissement du joueur",

"PLAYLIST.Delete": "Supprimer la playlist",
"PLAYLIST.Edit": "Éditer la playlist",
"PLAYLIST.GlobalVolume": "Contrôle du volume général",
"PLAYLIST.CurrentlyPlaying": "En cours de lecture",
"PLAYLIST.ModeDisabled": "Soundboard seulement",
"PLAYLIST.ModeSequential": "Jouer dans l'ordre",
"PLAYLIST.ModeShuffle": "Jouer aléatoirement",
"PLAYLIST.ModeSimultaneous": "Jouer en simultané",
"PLAYLIST.Play": "Jouer la playlist",
"PLAYLIST.Stop": "Stopper la playlist",
"PLAYLIST.Forward": "Suivant",
"PLAYLIST.Backward": "Précédent",
"PLAYLIST.VolPlaylist": "Playlists",
"PLAYLIST.VolAmbient": "Ambiance",
"PLAYLIST.VolInterface": "Interface",
"PLAYLIST.Name": "Nom de la playlist",
"PLAYLIST.Mode": "Mode de lecture",
"PLAYLIST.Fade": "Durée du fondu (ms)",
"PLAYLIST.Description": "Description de la playlist",
"PLAYLIST.Update": "Mettre à jour la playlist",
"PLAYLIST.SortMode": "Trier",
"PLAYLIST.SortAlphabetical": "par ordre alphabétique",
"PLAYLIST.SortManual": "manuellement",
"PLAYLIST.SoundCreate": "Créer une piste",
"PLAYLIST.SoundEdit": "Éditer la piste",
"PLAYLIST.SoundDelete": "Effacer la piste",
"PLAYLIST.SoundLoop": "Jouer en boucle",
"PLAYLIST.SoundName": "Nom de la piste",
"PLAYLIST.SoundSrc": "Source audio",
"PLAYLIST.SoundDescription": "Description de la piste",
"PLAYLIST.SoundRepeat": "Répéter",
"PLAYLIST.SoundStreaming": "Streaming de fichier volumineux",
"PLAYLIST.SoundUpdate": "Mettre à jour la piste",
"PLAYLIST.SoundPlay": "Jouer la piste",
"PLAYLIST.SoundPause": "Pause",
"PLAYLIST.SoundPreload": "Précharger la piste",
"PLAYLIST.SoundResume": "Resume Sound",
"PLAYLIST.SoundVolume": "Volume de la piste",
"PLAYLIST.SoundStop": "Couper le son de la piste",
"PLAYLIST.BulkImport": "Importation en masse",
"PLAYLIST.BulkImportWarning": "Aucun son de liste de lecture n'a été importé depuis le répertoire demandé  \"{path}\" ",
"PLAYLIST.PinToTop": "Épingler en haut",
"PLAYLIST.PinToBottom": "Épingler en bas",

"SCENES.Accessibility" : "Restriction d'accès",
"SCENES.AccessibilityGM" : "MJ Uniquement",
"SCENES.AccessibilityAll" : "Tous les joueurs",
"SCENES.Activate": "Activer",
"SCENES.AudioPlaylist": "Playlist Audio",
"SCENES.AudioPlaylistHint": "Playlist qui commence à jouer lorsque cette Scène est activée.",
"SCENES.BackgroundColor" : "Couleur d'arrière-plan",
"SCENES.BackgroundImage" : "Image d'arrière-plan",
"SCENES.BackgroundImageHint": "Configurer l'image d'arrière-plan et les dimensions de la carte principale de la scène",
"SCENES.ForegroundImage" : "Image de premier plan",
"SCENES.ForegroundImageHint": "Une image de premier plan facultative qui est dessinée au-dessus des autres objets de la scène.",
"SCENES.BackgroundScale": "Échelle de l'image d'arrière-plan",
"SCENES.BackgroundScaleHint": "Utilisez SHIFT+Molette de la souris ou SHIFT+Flèche vers le haut et SHIFT+Flèche vers le bas pour régler la taille de l'image d'arrière-plan.",
"SCENES.Configure": "Configurer",
"SCENES.ConfigTitle": "Configuration de la scène",
"SCENES.Darkness": "Niveau d'obscurité",
"SCENES.DarknessHint": "Configurer un calque d'obscurité qui assombrit la scène pour simuler des conditions de nuit ou de faible luminosité.",
"SCENES.Dimensions": "Dimensions de la scène",
"SCENES.DimensionsHint": "Les dimensions de l'arrière-plan définissent la taille du canevas de la scène. Ces valeurs sont définies automatiquement.",
"SCENES.DimensionChangeTitle": "Changer les dimensions de la scène ?",
"SCENES.DimensionChangeWarning": "Vous modifiez les dimensions primaires de cette scène. Si vous avez déjà placé des objets dans cette scène, cette opération peut entraîner un déplacement de la position de ces objets par rapport à l'image d'arrière-plan.",
"SCENES.FogExplore" : "Exploration du brouillard",
"SCENES.FogExploreHint" : "Suivre l'exploration du brouillard dans cette scène, le brouillard de guerre se dissipe durant l'exploration.",
"SCENES.GenerateThumb": "Régénérer la miniature",
"SCENES.GenerateThumbNoCanvas": "La miniature de la scène ne peut pas être générée lorsque le paramètre \"Disable Game Canvas\" est actif.",
"SCENES.GlobalIllum" : "Illumination globale",
"SCENES.GlobalIllumHint" : "Illumine toute la scène, les Tokens contrôlés par un joueur et ayant un champ de vision ont une ligne de vue",
"SCENES.GlobalLightThreshold": "Seuil d'illumination globale",
"SCENES.GlobalLightThresholdHint": "Désactive automatiquement l'Illumination Globale lorsque le niveau d'obscurité dépasse une certaine valeur de seuil.",
"SCENES.GridColor" : "Couleur de la grille",
"SCENES.GridConfigTool": "Outils de configuration de la grille",
"SCENES.GridConfigToolHint": "Configurez la position de la grille et de l'image de fond à l'aide de la molette de la souris et des touches fléchées, ou en définissant manuellement les champs suivants.",
"SCENES.GridOpacity" : "Opacité de la grille",
"SCENES.GridType" : "Type de grille",
"SCENES.GridGridless": "Sans grille",
"SCENES.GridSquare": "Carrée",
"SCENES.GridHexOddR": "Lignes hexagonales - impaires",
"SCENES.GridHexEvenR": "Lignes hexagonales - paires",
"SCENES.GridHexOddQ": "Colonnes hexagonales - impaires",
"SCENES.GridHexEvenQ": "Colonnes hexagonales - paires",
"SCENES.GridSize" : "Taille d'une case",
"SCENES.GridSizeHint" : "Utilisez ALT + molette de la souris ou ALT + Flèche vers le haut et ALT + Flèche vers le bas pour ajuster la taille de la grille.",
"SCENES.GridResizeHint": "Utilisez ALT + molette de la souris ou ALT + Flèche vers le haut et ALT + Flèche vers le bas pour ajuster la taille de la grille.",
"SCENES.GridPosition": "Position de l'offset de la grille",
"SCENES.GridPositionHint": "Utilisez les flèches pour déplacer le décalage de la grille.",
"SCENES.GridScale": "Echelle de la grille",
"SCENES.GridDistance": "Intervalle",
"SCENES.GridUnits": "Unité",
"SCENES.GridReset": "Annuler les modifications",
"SCENES.HeaderAmbience": "Ambiance",
"SCENES.HeaderDetails": "Détails",
"SCENES.HeaderGrid": "Grille",
"SCENES.HeaderVision": "Éclairage",
"SCENES.InitialView": "Position initiale de la vue",
"SCENES.InitialViewButton": "Capture de la vue actuelle",
"SCENES.InitialViewHint": "Définit la position par défaut de la caméra lors de la première ouverture de la scène.",
"SCENES.Loading": "Chargement de {name}",
"SCENES.NavName" : "Nom de navigation",
"SCENES.NavNameHint" : "Un nom alternatif pour la scène qui sera affiché dans la barre de navigation (en remplacement du nom réel de la scène).",
"SCENES.Notes": "Article de la scène",
"SCENES.Padding" : "Pourcentage de remplissage",
"SCENES.PaddingHint": "Ajoute un cadre accessible et utilisable autour de l'image d'arrière-plan de la scène (agrandit la scène au-delà de l'image d'un certain % tout autour).",
"SCENES.Pixels" : "pixels",
"SCENES.Preload": "Précharger",
"SCENES.SceneName": "Nom de scène",
"SCENES.View": "Afficher la scène",
"SCENES.JournalEntry": "Article",
"SCENES.JournalEntryHint": "Un article lié qui fournit des notes au maître du jeu sur cette scène.",
"SCENES.PlaylistSound": "Piste de la playlist",
"SCENES.PlaylistSoundHint": "Vous pouvez choisir une piste spécifique de la playlist qui doit être diffusé lorsque cette scène est active, sinon la playlist entière sera jouée.",
"SCENES.ShowNav" : "Afficher dans la navigation",
"SCENES.ShiftBG": "Décalage (offset) de la grille",
"SCENES.ShiftHorizontal" : "Décalage horizontal",
"SCENES.ShiftVertical" : "Décalage vertical",
"SCENES.TokenVision" : "Vision du token",
"SCENES.TokenVisionHint" : "Limiter la visibilité dans cette scène en fonction des tokens contrôlés et de leur vision.",
"SCENES.ToggleNav": "Masquer la navigation ",
"SCENES.Units" : "Unités",
"SCENES.WeatherEffect" : "Effet météorologique",
"SCENES.WeatherEffectHint" : "Ajouter un effet météorologique sur la scène.",
"SCENES.ZoomLower": "zoom",

"SETTINGS.Configure": "Configuration des options",
"SETTINGS.Keybindings": "Configuration des raccourcis",
"SETTINGS.DemoMode": "Mode démo",
"SETTINGS.Docs": "Documentation en anglais",
"SETTINGS.Invite": "Liens d'invitation",
"SETTINGS.ManageModules": "Gestionnaire de modules",
"SETTINGS.ViewModules": "Modules actifs",
"SETTINGS.Title": "Configuration des options de la partie",
"SETTINGS.Update": "Mettre à jour le logiciel",
"SETTINGS.Logout": "Déconnexion",
"SETTINGS.Players": "Configuration des joueurs",
"SETTINGS.Reset": "Réinitialiser",
"SETTINGS.Save": "Sauvegarder",
"SETTINGS.Setup": "Accueil de FoundryVTT",
"SETTINGS.None": "Aucun",
"SETTINGS.InfoHeader": "Informations générales",
"SETTINGS.SettingsHeader": "Configuration",
"SETTINGS.DocsHeader": "Aide & Documentation",
"SETTINGS.AccessHeader": "Invitations",
"SETTINGS.Wiki": "Wikis Communautaires",
"SETTINGS.AnimVisionN": "Vision l'animation du token",
"SETTINGS.AnimVisionL": "Animer le token et les changements de lumière lors des déplacements des tokens. Désactiver cette option peut améliorer les performances pour les petites configurations.",
"SETTINGS.AnimLightN": "Animation des lumières",
"SETTINGS.AnimLightL": "Autoriser les animations de lumières. Désactiver cette option améliorera les performances pour les petites configurations.",
"SETTINGS.FPSMeterN": "Afficher les FPS",
"SETTINGS.FPSMeterL": "Affiche un indicateur de fréquence d'images dans le coin inférieur droit de l'écran, qui indique les performances de rendu du canevas en images par seconde. (FPS)",
"SETTINGS.ResScaleN": "Désactiver la mise à l'échelle de la résolution des pixels",
"SETTINGS.ResScaleL": "Désactivez la mise à l'échelle automatique de la résolution du canevas en fonction de la densité de pixels du périphérique d'affichage. Cela entraînera une réduction de la qualité visuelle mais une amélioration des performances de l'application pour les écrans à haute densité.",
"SETTINGS.LangN": "Choix de la Langue",
"SETTINGS.LangL": "Change la Langue utilisée par Foundry Virtual Tabletop.",
"SETTINGS.LClickReleaseN": "Clic gauche pour relacher les objets",
"SETTINGS.LClickReleaseL": "Quand cette option est activée, effectuer un clic gauche sur la scène relachera tout objet actuellement contrôlé. Si cette option est désactivée, les objets sont relachés lors de la sélection d'un emplacement vide, via un clic avec la touche Shift enfoncée ou en appuyant sur la touche Esc.",
"SETTINGS.NoCanvasN": "Scène du jeu désactivée",
"SETTINGS.NoCanvasL": "La scène du jeu qui simule une représentation visuelle de la table virtuelle peut être désactivée. Cela permet aux ordinateurs bas de gamme de pouvoir utiliser une partie des fonctionnalitées du logiciel.",
"SETTINGS.CBubN": "Activer les bulles de tchat",
"SETTINGS.CBubL": "Active ou non les bulles de tchat qui s'afficheront au-dessus des tokens pour les messages de types in-character et emote.",
"SETTINGS.CBubPN": "Déplacer la vue sur le token",
"SETTINGS.CBubPL": "Configurer si la caméra doit automatiquement se déplacer vers un token lorsqu'une bulle de tchat s'affiche.",
"SETTINGS.MaxFPSN": "Framerate maximum",
"SETTINGS.MaxFPSL": "Limiter le Framerate maximum auquel Foundry Virtual Tabletop rafraichit les scènes. L'abaissement de cette valeur peut améliorer les performances pour les petites configurations.",
"SETTINGS.FontSizeN": "Taille de la police",
"SETTINGS.FontSizeL": "Agrandir ou réduire la taille de la police utilisée dans l'application.",
"SETTINGS.MipMapN": "Anti-crénelage de la texture zoomée",
"SETTINGS.MipMapL": "Calculer les mipmaps pour améliorer le rendu des textures de sprites en zooms faibles. Il s'agit d'un paramètre utilisateur, chacun peut modifier le rendu.",
"SETTINGS.PerformanceModeN": "Mode de performance",
"SETTINGS.PerformanceModeL": "Choisissez un mode de performance qui affecte la qualité du rendu du canevas et les performances de l'application. Les modes de performance inférieurs fonctionneront mieux avec du matériel moins puissant.",
"SETTINGS.PerformanceModeLow": "Faible",
"SETTINGS.PerformanceModeMed": "Moyen",
"SETTINGS.PerformanceModeHigh": "Elevé",
"SETTINGS.PerformanceModeMax": "Maximum",
"SETTINGS.ScrollStatusN": "Défilement du texte d'état",
"SETTINGS.ScrollStatusL": "Un texte d'état défilant peut apparaître au-dessus des tokens ou d'autres objets du canevas afin de fournir un retour d'information sur les modifications apportées à cet objet.",
"SETTINGS.SoftSN": "Activer les ombres douces",
"SETTINGS.SoftSL": "Activer les ombres douces pour un plus bel éclairage dynamique ou désactiver pour améliorer les performances pour les petites configurations.",
"SETTINGS.Support": "Support",
"SETTINGS.TabCore": "Configuration générale",
"SETTINGS.TabModule": "Modules",
"SETTINGS.TabSystem": "Système de jeu",
"SETTINGS.TokenDragPreviewN": "Vision des tokens lors du glisser",
"SETTINGS.TokenDragPreviewL": "Lorsque cette option est activée, la vision et l'éclairage d'un Token sont générées en temps réel lors d'une opération de glisser-déposer. Cette option est désactivée par défaut car elle peut occasionner des comportements indésirables de meta-jeu.",
"SETTINGS.DefaultTokenN": "Configuration par défaut des tokens",
"SETTINGS.DefaultTokenL": "Configurer les paramètres par défaut des tokens",
"SETTINGS.DefaultTokenH": "Configurer les valeurs par défaut des tokens pour les personnages nouvellement créés.",
"SETTINGS.PermissionReset": "Réinitialiser les autorisations du rôle aux valeurs par défaut.",
"SETTINGS.PermissionUpdate": "Mettre à jour la configuration des autorisations des rôles.",

"SETUP.CoreVersion": "Version du logiciel (core)",
"SETUP.CoreVersionHint": "Si une mise à jour du logiciel (core) de Foundry Virtual Tabletop est disponible, vous pouvez l'appliquer ici. Vous utilisez actuellement la version {coreVersion}.",
"SETUP.DefaultLanguage": "Langue par défaut",
"SETUP.DefaultLanguageHint": "Vous pouvez choisir une langue par défaut pour l'application en choisissant un module qui fournit les fichiers de traduction de base pour cette langue.",
"SETUP.SettingsHeader": "Configuration du logiciel FVTT",
"SETUP.YouMustInstallASystem": "Vous devez installer un système de jeu avant de pouvoir créer un nouveau monde.",
"SETUP.UpdateAvailable": "Une mise à jour du core version {version} est disponible sur le canal {channel} !",
"SETUP.Configuration": "Configuration",
"SETUP.ConfigurationWarning": "Les paramètres suivants personnalisent le comportement de Foundry Virtual Tabletop. Les modifications nécessiteront le redémarrage du serveur.",
"SETUP.MinifyFiles": "Optimiser les fichiers statiques",
"SETUP.MinifyFilesHint": "Réduire le trafic réseau en proposant des fichiers CSS et JavaScript minifiés. Option recommandée pour la plupart des joueurs. Les développeurs de modules peuvent vouloir la désactiver.",
"SETUP.Modules": "Modules",
"SETUP.Systems": "Systèmes",
"SETUP.GettingStarted": "Pour commencer",
"SETUP.NoSystemsMessage": "Afin de créer votre premier Monde, vous devez d'abord installer un <a class=\"system-install\" data-query=\"\" title=\"Game System\">Système de Jeu</a>. Prenez le temps de parcourir les systèmes disponibles afin d'en choisir un et l'installer. Si vous ne savez pas quel système vous voulez, ou si votre système préféré n'est pas disponible, nous vous recommandons dans un premier temps d'installer le système <a class=\"system-install\" data-query=\"Simple Worldbuilding\" title=\"Simple Worldbuilding\">Simple Worldbuilding</a>.",
"SETUP.SeeTutorial": "Pour un guide plus approfondi sur la prise en main de Foundry Virtual Tabletop, vous pouvez consulter la série (en anglais) <a href=\"https://foundryvtt.com/article/tutorial/\" target=\"_blank\" title=\"Gamemaster Tutorial\">Gamemaster Tutorial</a> dans notre <a href=\"https://foundryvtt.com/kb/\" target=\"_blank\" title=\"Knowledge Base\">Knowledge Base</a> ( et pour vous orienter dans vos premiers pas en français : <a href=\"https://discord.gg/pPSDNJk\" target=\"_blank\" title=\"le discord fr\">le discord FR</a> et <a href=\"https://foundryvtt.wiki/fr/home\" target=\"_blank\" title=\"le wiki fr\">le wiki FR</a> ).",
"SETUP.Title": "Configuration et Paramètres",
"SETUP.Update": "Mise à jour",
"SETUP.SystemUpdate": "Mise à jour du système",
"SETUP.CoreUpdateInstructions": "Une mise à jour du logiciel de base (core) est disponible, retournez au menu principal dans l'onglet Mise à Jour pour l'appliquer !",
"SETUP.SystemUpdateInstructions": "Une mise à jour du système est disponible, retournez au menu principal dans l'onglet Systèmes pour l'appliquer !",
"SETUP.PackagesNoResults": "Aucun package ne correspond à votre filtre.",
"SETUP.UpdateAll": "Tout mettre à jour",
"SETUP.UpdateChannel": "Canal de mise à jour de FVTT",
"SETUP.UpdateChannelHint": "Vous pouvez choisir un canal de mise à jour en fonction du type de mises à jour que vous souhaitez recevoir pour Foundry Virtual Tabletop. Si vous n'avez pas de raison particulière de changer cela, il est recommandé de rester sur le canal de mise à jour 'Release'.",
"SETUP.UpdateCheck": "Vérifier MàJ",
"SETUP.UpdateCheckFor": "Vérifier la mise à jour",
"SETUP.UpdateHint": "Vous pouvez mettre à jour votre logiciel Foundry Virtual Tabletop vers une nouvelle version en vérifiant les mises à jour du canal sélectionné.",
"SETUP.UpdatePrototype": "Prototype",
"SETUP.UpdatePrototypeHint": "Prototype: Versions permettant de prévisualiser la conception de fonctionnalités expérimentales qui ne sont pas encore totalement développées.",
"SETUP.UpdateDevelopment": "Développement",
"SETUP.UpdateDevelopmentHint": "API Développement: Versions permettant de tester la conception de nouvelles fonctionnalités et des modifications de l'API afin d'obtenir un retour d'information des développeurs.",
"SETUP.UpdateTesting": "Test",
"SETUP.UpdateTestingHint": "Test des fonctionnalités: Versions permettant de tester de nouvelles fonctionnalités afin d'obtenir un retour d'information des utilisateurs.",
"SETUP.UpdateStable": "Stable",
"SETUP.UpdateStableHint": "Stable: Versions qui ont été soigneusement testées et sont recommandées pour être utilisées dans vos parties.",
"SETUP.ForceUpdateHint": "Si vous cochez la case \"Forcer la mise à jour\", votre version sera forcée en mise à jour sur le canal demandé. N'utilisez cette option que si vous savez exactement ce que vous faites.",
"SETUP.Uninstall": "Désinstaller",
"SETUP.WorldCreate": "Créer un Monde",
"SETUP.WorldDelete": "Supprimer",
"SETUP.WorldEdit": "Modifier",
"SETUP.WorldLaunch": "Lancer",
"SETUP.Worlds": "Mondes",
"SETUP.RequireUpdate": "Mise à jour nécessaire",
"SETUP.RequireSystem": "Mise à jour du système de jeu nécessaire",
"SETUP.RequireDep": "Nécessite une (des) dépendance(s)",
"SETUP.RequireCore": "Nécessite une mise à jour du Core FVTT",
"SETUP.LockHint": "Le verrouillage d'un Package empêche qu'il soit désinstallé ou mis à jour",

"SETUP.ManifestUpdate": "Mise à jour de l'URL d'installation",
"SETUP.ManifestUpdateAvailable": "L'URL d'installation de \"{package}\" a été mise à jour. Cela se produit lorsque l'hébergement du source packagé ou l'auteur a changé.",
"SETUP.PriorManifestUrl": "URL du manifeste antérieur",
"SETUP.UpdatedManifestUrl": "URL du manifeste mis à jour",
"SETUP.SwapToTheUpdatedManifest": "Voulez-vous passer à la nouvelle URL du manifeste ? (vivement recommandé)",

"SETUP.ConfigSave": "Sauvegarder la configuration",
"SETUP.ConfigSaveWarning": "La modification de ces options de configuration entraînera l'arrêt du serveur et vous devrez le redémarrer. Souhaitez-vous continuer ?",
"SETUP.ConfigSaveRestart": "Le serveur de Foundry Virtual Tabletop a été stoppé pour appliquer les changements. Vous devez le redémarrer.",

"SETUP.CurrentVersion": "Version actuelle",
"SETUP.ForceUpdate": "Forcer la màj",
"SETUP.CompatibilityUnknown": "Compatibilité inconnue",
"SETUP.CompatibilityRisk": "Risque de compatibilité",
"SETUP.CompatibilityRiskWithVersion": "Risque de compatibilité ({version})",
"SETUP.ManifestURL": " URL du Manifest",
"SETUP.InstallHint": "Vous pouvez installer un package en fournissant un lien vers son manifeste JSON.",
"SETUP.InstallModule": "Installer un module",
"SETUP.InstallSystem": "Installer un système de jeu",
"SETUP.InstallSuccess": "Le {type} {name} a été installé correctement",
"SETUP.InstallFailure": "L'installation a échoué : {message}",
"SETUP.InstallWorld": "Installer un monde",
"SETUP.UninstallSuccess": "a été désinstallé avec succès",
"SETUP.UninstallFailure": "La désinstallation a échoué.",
"SETUP.UpdateSuccess": "a été mis à jour avec succès",
"SETUP.UpdateFailure": "La mise à jour a échoué.",
"SETUP.PackagesLoading": "Chargement des packages disponibles",
"SETUP.CouldntLoadPackages": "Impossible de charger les packages disponibles",
"SETUP.PackageFilter": "Filtre (Packages)",
"SETUP.WorldFilter": "Filtre (Mondes)",
"SETUP.SystemFilter": "Filtre (Systèmes)",
"SETUP.ModuleFilter": "Filtre (Modules)",
"SETUP.PackageFilterHint": "Les packages disponibles peuvent être filtrés par leur nom ou par leur titre",
"SETUP.PackageCategories": "Catégories de packages",
"SETUP.PackageInstalled": "Installés",
"SETUP.PackageNotOwned": "Non détenus",
"SETUP.PackageName": "Nom du package",
"SETUP.PackageVisAll": "Tous les packages",
"SETUP.PackageVisInst": "Installés",
"SETUP.PackageVisUnin": "Disponibles",

"SETUP.PackageHasDependencies": "{title} a {number} dépendances qui n'ont pas encore été installées.",
"SETUP.PackageDependenciesTitle": "Installer les dépendances du package",
"SETUP.PackageInstallDependencies": "Vous ne serez peut-être pas en mesure d'utiliser ce package si ces dépendances ne sont pas présentes. Souhaitez-vous les installer automatiquement ?",
"SETUP.PackageDependenciesDecline": "Vous avez choisi de ne pas installer les dépendances requises par {title}, vous devrez les installer manuellement pour pouvoir l'utiliser.",
"SETUP.PackageDependenciesSuccess": "Installation de {title} et de {number} dépendances réussie.",
"SETUP.PackageUpdateBlocked": "Une mise à jour est disponible pour {name} mais ne peut être installée car elle nécessite la version de base du logiciel {vreq} et vous utilisez actuellement la version {vcur}.",
"SETUP.PackageDeleteTitle": "Suppression du {type}: {title}",
"SETUP.PackageDeleteConfirm": "Vous êtes sur le point de supprimer le {type}: <strong>{title}</strong>",
"SETUP.WorldDeleteConfirm1": "<strong>Attention !</strong> Cette Action entraînera la suppression définitive du monde et de son contenu <strong>sans restauration</strong> possible.<br> - Êtes-vous sûr de vouloir continuer cette action ?</strong>",
"SETUP.WorldDeleteConfirm2": "Veuillez saisir le <strong>code exact</strong> dans le cadre ci-dessous, afin de valider la suppression <strong>définitive</strong> du Monde : ",
"SETUP.PackageDeleteNoUndo": "<strong>Attention:</strong> Cette opération ne pourra pas être annulée.",
"SETUP.PackageDeleteWorldConfirm": "Vous devez saisir le code exact afin de confirmer votre demande de suppression du Monde.",
"SETUP.PackageStatusCheck": "Vérifier les mises à jour",
"SETUP.PackageStatusBlocked": "Geler",
"SETUP.PackageStatusUpdate": "Mise à jour",
"SETUP.PackageStatusCurrent": "À jour",
"SETUP.PackageStatusUpdating": "En cours",
"SETUP.PackageStatusUpdated": "Mis à jour", 

"SETUP.UpdateDownloadingS": "Téléchargement de la mise à jour en cours",
"SETUP.UpdateDownloadingC": "Téléchargement fini",
"SETUP.UpdateExtractingS": "Extraction de la mise à jour en cours",
"SETUP.UpdateExtractingC": "Extraction finie",
"SETUP.UpdateCleaningS": "Nettoyage des fichiers en cours",
"SETUP.UpdateCleaningC": "Nettoyage fini",
"SETUP.UpdateInstallingS": "Installation de la mise à jour en cours",
"SETUP.UpdateInstallingC": "Installation finie",
"SETUP.UpdateCompleteManual": "La mise à jour a été effectuée avec succès. Arrêt du serveur Foundry Virtual Tabletop pour un redémarrage manuel.",
"SETUP.UpdateCompleteAuto": "La mise à jour a été effectuée avec succès. Redémarrage de l'application Foundry VTT.",

"SETUP.UpdateNoInternetError": "Foundry Virtual Tabletop nécessite une connexion Internet active pour être mis à jour.",
"SETUP.UpdateWebsiteUnreachableError": "Nous ne pouvons pas joindre https://foundryvtt.com pour le moment, veuillez réessayer plus tard.",
"SETUP.UpdateWebsiteSlowWarning": "https://foundryvtt.com semble être très sollicité en ce moment, nous vous recommandons de réessayer plus tard.",
"SETUP.UpdateWarningWillDisable": "Cette mise à jour est une nouvelle version majeure de Foundry Virtual Tabletop. Son installation nécessitera la désactivation de certains modules potentiellement incompatible sans mise à jour de ceux-ci.",
"SETUP.UpdateButtonDownload": "Télécharger la mise à jour {version}",
"SETUP.UpdateInfoAvailable": "Une mise à jour de Foundry Virtual Tabletop vers la version {version} est disponible !",
"SETUP.UpdateNoUpdateMode": "Vous n'êtes pas autorisé à mettre à jour cette instance de Foundry Virtual Tabletop car elle a été lancée en mode --noupdate.",
"SETUP.UpdateNotAvailable": "Aucune mise à jour du logiciel n'est actuellement disponible sur le canal de mise à jour demandé.",
"SETUP.UpdateNoArchive": "Il n'existe aucune mise à jour à installer",
"SETUP.UpdateLicenseInvalid": "Votre clé de licence Foundry Virtual Tabletop n'est pas valide.",
"SETUP.UpdatedPackages": "Journal des mises à jour",
"SETUP.Package": "Packages",
"SETUP.VersionChange": "Changement de version",

"SETUP.WorldMigrationRequiredTitle": "Migration des données du monde requise",
"SETUP.WorldMigrationRequired": "<p>En chargeant le monde<strong>{world}</strong>, celui-ci va migrer son modèle de données d'une ancienne version du logiciel core-{oldVersion} vers la version core-{newVersion} actuellement installé.</p><p>Le processus va également désactiver <strong>{nIncompatible} des {nModules} modules installés </strong> qui pourraient ne pas encore être compatible avec cette nouvelle version. Vous pouvez les réactiver manuellement si vous le souhaitez.</p><p>Veuillez vérifier si des mises à jour sont disponibles pour vos systèmes et modules de jeu, et veillez à sauvegarder périodiquement vos données essentielles liées à votre monde. Souhaitez-vous continuer ?</p>",

"SETUP.AdminAccess": "Foundry Virtual Tabletop &bull; Accès Administrateur",
"SETUP.AdminKeyLabel": "Mot de passe Administrateur",
"SETUP.AdminKeyPrompt": "Vous devez fournir le mot de passe Admininistrateur afin d'accéder à la configuration.",
"SETUP.AdminKeyHint": "Un mot de passe restreint l'accès à cet écran de configuration.",
"SETUP.AdminLogout": "Déconnection (Admin)",

"SETUP.AWSLabel": "Chemin de Configuration AWS",
"SETUP.AWSHint": "Le chemin vers ce fichier de configuration AWS pour l'intégration S3 doit être absolu ou relatif au sous-répertoire 'Config' des données utilisateur.",
"SETUP.CompressStaticLabel": "Compresser les fichiers statiques",
"SETUP.CompressStaticHint": "Compressez les fichiers servis par le serveur Web Foundry Virtual Tabletop avant de les envoyer au client pour réduire la quantité de données transférées.",
"SETUP.PortLabel": "Port",
"SETUP.PortHint": "Foundry Virtual Tabletop utilise ce port pour le trafic de connexion TCP.",
"SETUP.UPNPLabel": "Activer UPnP ?",
"SETUP.DataPathLabel": "Chemin des données utilisateur",
"SETUP.DataPathHint": "Endroit où sont stockées vos données d'utilisateur, y compris les mondes, les systèmes et les modules.",
"SETUP.WorldLabel": "Monde par défaut",
"SETUP.WorldHint": "Choisir un des mondes de jeu disponibles qui sera lancé automatiquement au démarrage du logiciel.",
"SETUP.SSLCertLabel": "Certificat SSL (Secure Socket Layer)",
"SETUP.SSLKeyLabel": "Clé privée SSL (Secure Socket Layer)",
"SETUP.SSLHint": "Activer le SSL en fournissant les chemins d'accès aux fichiers de certificats et de clés. Ces chemins sont absolus ou relatifs au sous-répertoire Config dans les données utilisateur.",

"PACKAGE.TagJavaScript": "JavaScript",
"PACKAGE.TagCSS": "CSS",
"PACKAGE.TagCompendium": "Compendium",
"PACKAGE.TagLocalization": "Localisation",
"PACKAGE.TagVersion": "Version",
"PACKAGE.TagCoreVersion": "Version du Core",
"PACKAGE.GetPackagesTimedOut": "La récupération des packages a expiré",
"PACKAGE.PackageInstallTimedOut": "L'installation du package a expiré",
"PACKAGE.UpdateCheckTimedOut": "Ne répond pas (expiration de l'attente)",
"PACKAGE.WarmCacheTimedOut": "Le cache du package est expiré",

"JOIN.CurrentPlayers": "Joueurs présents",
"JOIN.HeaderJoin": "Rejoindre la partie",
"JOIN.HeaderDetails": "Détails de la Session",
"JOIN.HeaderSetup": "Retour au menu d'accueil",
"JOIN.HeaderWorld": "Description du monde",
"JOIN.NextSession": "Prochaine partie",
"JOIN.SelectUser": "Sélectionner le Joueur",
"JOIN.UserKey": "Mot de passe",
"JOIN.AuthAdmin": "Vous êtes authentifié en tant qu'administrateur du serveur.",

"JOIN.ErrorUserDoesNotExist": "Le joueur demandé, \"{user}\", n'existe pas !",
"JOIN.ErrorInvalidPassword": "Mot de passe invalide pour {user}!",
"JOIN.ErrorBanned": "{user} n'a pas la permission d'accéder à ce monde !",
"JOIN.LoginSuccess": "Connexion en tant que {utilisateur} réussie, chargement du monde !",

"SHEETS.ThisSheet": "Cette feuille de personnage",
"SHEETS.DefaultSheet": "Feuille de personnage par défaut",
"SHEETS.DefaultDocumentSheet": "{document} par défaut",
"SHEETS.DocumentSheetHint": "Remplacez le type de feuille que vous souhaitez utiliser pour ce document spécifique.",
"SHEETS.TypeSheetHint": "Définir la feuille de personnage type pour ce personnage (réservé au MJ).",
"SHEETS.DocumentSheetPrivate": "Vous n'avez pas les autorisations suffisantes pour afficher cette fiche.",
"SHEETS.Save": "Sauver la configuration de la feuille",

"SOUND.ConfigTitle": "Configuration de l'ambiance sonore",
"SOUND.ConfigHint": "Configurer l'ambiance sonore à diffuser lorsque des tokens rentrent dans son rayon.",
"SOUND.Create": "Créer une ambiance sonore",
"SOUND.Update": "Mettre à jour l'ambiance",
"SOUND.SourcePath": "Chemin vers le fichier source",
"SOUND.PathPlaceholder": "arborescence/vers/audio.mp3",
"SOUND.Radius": "Rayon sonore",
"SOUND.Easing": "Atténuation du volume",
"SOUND.EasingHint": "Ajustement du volume sonore de l'ambiance en fonction de la distance du token par rapport à la source.",
"SOUND.MaxVol": "Volume maximal",
"SOUND.MaxVolHint": "Volume maximal de l'ambiance sonore à son point d'origine si l'atténuation est activée ou partout dans la zone dans le cas contraire.",
"SOUND.New": "Nouveau son",
"SOUND.DarknessRange": "Portée d'activation de l'obscurité",
"SOUND.DarknessRangeHint": "Vous pouvez spécifier une portée d'activation due à l'obscurité pour laquelle ce son ambiant sera audible.",
"SOUND.Walls": "Contraint par les murs",
"SOUND.WallsHint": "Configurez si la zone d'effet de cette source audio est limitée par les murs à proximité.",

"FOLDER.Clear": "Effacer le dossier",
"FOLDER.Color": "Couleur du dossier",
"FOLDER.Create": "Créer un dossier",
"FOLDER.Collapse": "Réduire tous les dossiers",
"FOLDER.Delete": "Supprimer TOUT",
"FOLDER.DeleteWarning": "Ce dossier et son contenu seront définitivement supprimés et ne pourront pas être récupérés.",
"FOLDER.Edit": "Éditer le dossier",
"FOLDER.Export": "Exporter vers le Compendium",
"FOLDER.Name": "Nom du dossier",
"FOLDER.Remove": "Supprimer le dossier",
"FOLDER.RemoveWarning": "Ce dossier sera définitivement supprimé et son contenu sera déplacé vers son dossier parent.",
"FOLDER.SortAlphabetical": "Alphabétique",
"FOLDER.SortManual": "Manuel",
"FOLDER.SortMode": "Tri",
"FOLDER.Update": "Mettre à jour le dossier",
"FOLDER.ExportTitle": "Exporter",
"FOLDER.ExportHint": "Vous pouvez exporter les entités contenues dans ce dossier vers un compendium débloqué du type approprié.",
"FOLDER.ExportDestination": "Compendium de destination ",
"FOLDER.ExportKeepId": "Garder l'ID des documents ?",
"FOLDER.ExportMerge": "Fusionner par le nom ?",
"FOLDER.ExportWarningNone": "Il n'y a pas de compendium débloqués disponibles pour les entités {type} vers lesquelles vous voulez exporter.",
"FOLDER.Exporting": "Export en cours de {n} {type} documents vers le Compendium {compendium}.",
"FOLDER.ExportDone": "Export terminé de {type}s vers le Compendium {compendium}.",
"FOLDER.CreateTable": "Créer une table aléatoire",
"FOLDER.CreateTableConfirm": "Créer une nouvelle table aléatoire en utilisant le contenu de ce dossier comme résultat de la table ?",

"PERMISSION.NONE": "Aucun",
"PERMISSION.LIMITED": "Limité",
"PERMISSION.OBSERVER": "Observateur",
"PERMISSION.OWNER": "Propriétaire",
"PERMISSION.DEFAULT": "Par défaut",
"PERMISSION.NOCHANGE": "Pas de changement",

"PERMISSION.AllPlayers": "Tous les joueurs",
"PERMISSION.Configure": "Configurer les droits",
"PERMISSION.ConfigureLabel": "Ouvrir la Configuration des droits",
"PERMISSION.ConfigureHint": "Ajuster les actions permises aux utilisateurs pour chaque rôle.",
"PERMISSION.Title": "Configuration des droits",
"PERMISSION.Instructions": "Configure quel rôle a la permission d'effectuer quelle action. Certaines actions ne peuvent pas être désactivées pour les utilisateurs de rôle Maître du Jeu (GameMaster). Certaines modifications peuvent ne pas prendre effet avant que le jeu ne soit rechargé.",
"PERMISSION.HintFolder": "Configure l'accès pour toutes les entités de ce dossier. Les modifications seront appliquées à toutes les entités contenues, à l'exclusion du contenu des sous-dossiers.",
"PERMISSION.HintDocument": "Configure l'accès à ce document spécifique, en permettant à chaque utilisateur de se voir attribuer un niveau de visibilité différent.",
"PERMISSION.Permission": "Droit",
"PERMISSION.Permissions": "Droits attachés aux différents rôles",
"PERMISSION.Reset": "Réinitialiser",
"PERMISSION.Submit": "Sauvegarder",
"PERMISSION.BroadcastAudio": "Autoriser la diffusion audio",
"PERMISSION.BroadcastAudioHint": "Permettre aux joueurs ayant ce rôle de diffuser de l'audio lorsqu'ils utilisent l'intégration du tchat A/V.",
"PERMISSION.BroadcastVideo": "Autoriser la diffusion vidéo",
"PERMISSION.BroadcastVideoHint": "Permettre aux joueurs ayant ce rôle de diffuser de la vidéo lorsqu'ils utilisent l'intégration du tchat A/V..",
"PERMISSION.ActorCreate": "Créer de nouveaux personnages",
"PERMISSION.ActorCreateHint": "Permettre aux joueurs ayant ce rôle de créer de nouveaux personnages dans le monde.",
"PERMISSION.DrawingCreate": "Utiliser les outils de dessin",
"PERMISSION.DrawingCreateHint": "Permettre aux joueurs ayant ce rôle de créer des dessins en utilisant les outils de dessin.",
"PERMISSION.ItemCreate": "Créer de nouveaux objets",
"PERMISSION.ItemCreateHint": "Permettre aux joueurs ayant ce rôle de créer de nouveaux objets dans le monde.",
"PERMISSION.FilesBrowse": "Parcourir l'explorateur de fichiers",
"PERMISSION.FilesBrowseHint": "Permettre aux joueurs ayant ce rôle de parcourir les fichiers disponibles dans l'explorateur de fichiers.",
"PERMISSION.FilesUpload": "Télécharger de nouveaux fichiers",
"PERMISSION.FilesUploadHint": "Permettre aux joueurs ayant ce rôle de télécharger du contenu SUR le serveur à l'aide de l'explorateur de fichiers",
"PERMISSION.JournalCreate": "Créer de nouveaux articles",
"PERMISSION.JournalCreateHint": "Permettre aux joueurs ayant ce rôle de créer de nouveaux articles dans la barre latérale du journal.",
"PERMISSION.MacroScript": "Autoriser les Macros scriptée",
"PERMISSION.MacroScriptHint": "Permettre aux joueurs ayant ce rôle d'utiliser des macros JavaScript qui accèdent à l'API.",
"PERMISSION.MessageWhisper": "Chuchoter des messages privés",
"PERMISSION.MessageWhisperHint": "Permettre aux joueurs ayant ce rôle de chuchoter des messages privés que le maître de jeu ne peut pas voir.",
"PERMISSION.NoteCreate": "Créer des notes sur les scènes",
"PERMISSION.NoteCreateHint": "Permettre aux joueurs ayant ce rôle de créer des notes à partir des articles dont ils sont propriétaires.",
"PERMISSION.SettingsModify": "Modifier les paramètres de configuration",
"PERMISSION.SettingsModifyHint": "Permettre aux joueurs ayant ce rôle de modifier les paramètres du jeu et d'activer ou de désactiver des modules.",
"PERMISSION.ShowCursor": "Afficher le curseur de la souris",
"PERMISSION.ShowCursorHint": "Afficher la position du curseur de la souris du joueur quand celui-ci est sur la scène active",
"PERMISSION.ShowRuler": "Afficher la règle de mesure des distances",
"PERMISSION.ShowRulerHint": "Afficher pour les autres joueurs connectés les mesures de distances à l'aide de la règle .",
"PERMISSION.TemplateCreate": "Créer de nouveaux gabarits",
"PERMISSION.TemplateCreateHint": "Permettre aux joueurs ayant ce rôle de créer des gabarits pour mesurer les zones d'effets.",
"PERMISSION.TokenCreate": "Créer de nouveaux tokens",
"PERMISSION.TokenCreateHint": "Permettre aux joueurs ayant ce rôle de placer des tokens pour les personnages qu'ils possèdent sur la scène.",
"PERMISSION.TokenConfigure": "Configurer les paramètres du token",
"PERMISSION.TokenConfigureHint": "Permettre aux joueurs ayant ce rôle de configurer les paramètres des tokens qu'ils possèdent.",
"PERMISSION.WallDoors": "Ouvrir et fermer les portes",
"PERMISSION.WallDoorsHint": "Permettre aux joueurs ayant ce rôle d'interagir avec les portes (définies sur le calque des murs).",
"PERMISSION.WarningNoCreate": "Vous n'avez pas de privilèges suffisants pour créer un {document}.",

"SIDEBAR.Import": "Importer données",
"SIDEBAR.TabChat": "Tchat",
"SIDEBAR.TabCombat": "Combat Tracker",
"SIDEBAR.TabScenes": "Scènes",
"SIDEBAR.TabActors": "Personnages",
"SIDEBAR.TabItems": "Objets",
"SIDEBAR.TabJournal": "Articles",
"SIDEBAR.TabCards": "Jeux de cartes",
"SIDEBAR.TabPlaylists": "Playlists",
"SIDEBAR.TabCompendium": "Compendium",
"SIDEBAR.TabSettings": "Paramètres",
"SIDEBAR.TabTables": "Tables aléatoires",
"SIDEBAR.TokenArt": "Voir l'image du token",
"SIDEBAR.JumpPin": "Aller à l'épingle",
"SIDEBAR.CharArt": "Voir l'image du personnage",
"SIDEBAR.CollapseToggle": "Réduire ou étendre",
"SIDEBAR.Delete": "Supprimer",
"SIDEBAR.DeleteWarning": "Ce {type} sera définitivement supprimé et ne pourra pas être récupéré.",
"SIDEBAR.Duplicate": "Dupliquer",
"SIDEBAR.Export": "Exporter Données",
"SIDEBAR.Create": "Créer {type}",
"SIDEBAR.Search": "Chercher {types}",
"SIDEBAR.DirectoryTitle": "Répertoire de {type}",
"SIDEBAR.Documentation": "Documentation Foundry VTT (anglais)",
"SIDEBAR.Wiki": "Wiki Communautaire Foundry VTT (multilingue)",

"SUPPORT.Title": "Détails du support",
"SUPPORT.Places": "Où trouver de l'aide",
"SUPPORT.Discord": "Pour rejoindre d'autres utilisateurs de Foundry VTT, ou pour bénéficier de l'aide de nos merveilleux assistants communautaires, rejoignez nous sur le Discord FR https://discord.gg/pPSDNJk ou sur le discord officiel anglais :",
"SUPPORT.BugReporting": "Si vous souhaitez signaler un bug, veuillez utiliser la catégorie 'Report Bug' disponible sur la page 'Contact-us' : ",
"SUPPORT.Details": "Détails du support",
"SUPPORT.ReportPrelude": "Lorsque vous demandez de l'aide sur le Discord ou Gitlab, il est utile que nous sachions ce qui se passe dans votre monde. Vous trouverez ci-dessous un rapport à copier-coller que nous vous demandons d'inclure.",
"SUPPORT.CopyReport": "Copier le rapport dans le presse-papiers",
"SUPPORT.OS": "OS",
"SUPPORT.Client": "Client",
"SUPPORT.GPU": "GPU",
"SUPPORT.MaxTextureSize": "Max Texture Size (Taille maximale des textures)",
"SUPPORT.NoViewedScene": "Aucune scène visualisée",

"TABLE.AnimateSetting": "Animation des tables aléatoires",
"TABLE.AnimateSettingHint": "Un lancer sur une table aléatoire affiche une animation de style 'roulette'",
"TABLE.Description": "Description de la table",
"TABLE.DisplayRoll": "Afficher le jet dans le tchat",
"TABLE.Formula": "Formule du jet de dé",
"TABLE.SheetTitle": "Configuration de la table aléatoire",
"TABLE.Normalize": "Normaliser le poids des résultats",
"TABLE.Replacement": "Relancer sur toute la table (sinon les résultats précédents sont retirés)",
"TABLE.Reset": "Réinitialiser",
"TABLE.ResultCreate": "Ajouter un nouveau résultat",
"TABLE.ResultType": "Type de résultat",
"TABLE.ResultDetails": "Détail du résultat",
"TABLE.ResultDescription": "Description du résultat",
"TABLE.ResultDelete": "Supprimer le résultat",
"TABLE.ResultWeight": "Poids",
"TABLE.ResultRange": "Intervalle",
"TABLE.Roll": "Lancer",
"TABLE.ToggleDrawn": "Retirer des résultats possibles",
"TABLE.Update": "Mettre à jour",

"TEMPLATE.ConeTypeSetting": "Type de gabarit cône",
"TEMPLATE.ConeTypeSettingHint": "Définit la zone d'effet pour les gabarits en cône.",
"TEMPLATE.ConeTypeFlat": "Plat",
"TEMPLATE.ConeTypeRound": "Rond",
"TEMPLATE.MeasuredConfig": "Configuration du modèle de mesure",

"TILE.ConfigTitle": "Configuration de la tuile",
"TILE.BasicHeader": "Général",
"TILE.BasicHint": "Configuration de la tuile affichée au-dessus de l'arrière-plan de la scène.",
"TILE.OverheadHeader": "Transparence",
"TILE.OverheadHint": "Configuration complémentaire si la tuile est en surimpression au premier plan.",
"TILE.AnimationHeader": "Animation",
"TILE.AnimationHint": "Configuration complémentaire si la Tuile est une vidéo.",
"TILE.Image": "Image ou vidéo",
"TILE.Opacity": "Opacité de la tuile",
"TILE.Tint": "Couleur de la teinte",
"TILE.Overhead": "Est-elle transparente ?",
"TILE.OcclusionMode": "Mode d'occultation",
"TILE.OcclusionModeNone": "Aucun (toujours visible)",
"TILE.OcclusionModeFade": "Fondu (tuile complète)",
"TILE.OcclusionModeRoof": "Toit (Affecte la vision et la vue)",
"TILE.OcclusionModeRadial": "Radial (surrounding token)",
"TILE.OcclusionAlpha": "Alpha (occultation)",
"TILE.VideoLoop": "Vidéo en boucle",
"TILE.VideoAutoplay": "Lecture automatique de la vidéo",
"TILE.VideoVolume": "Volume de la vidéo",

"TOKEN.HeaderIdentity": "Identité",
"TOKEN.HeaderAppearance": "Apparence",
"TOKEN.HeaderVision": "Vision",
"TOKEN.HeaderLight": "Lumière",
"TOKEN.HeaderResources": "Ressources",

"TOKEN.Assign": "Assigner le token",
"TOKEN.AssignWarn": "Vous devez sélectionner un token existant pour l'attribuer comme nouvelle configuration du prototype.",
"TOKEN.AssignSuccess": "Mise à jour du prototype de configuration des tokens pour {name}",
"TOKEN.BarAttributes": "Barres d'attributs",
"TOKEN.BarValues": "Valeurs Individuelles",
"TOKEN.CharActor": "Personnage représenté",
"TOKEN.CharLink": "Lié au Personnage",
"TOKEN.CharNameplate": "Plaque d'identification",
"TOKEN.CharShowNameplate": "Montrer la plaque d'identification",
"TOKEN.Coordinates": "Coordonnées",
"TOKEN.Disposition": "Disposition des tokens",
"TOKEN.Dimensions": "Dimensions",
"TOKEN.ImageAlts": "Alterner les tokens du Personnage",
"TOKEN.ImagePath": "Image du token",
"TOKEN.LockRotation": "Vérouillé",
"TOKEN.Lock": "Vérouiller",
"TOKEN.Mirror": "Image miroir",
"TOKEN.MirrorX": "Symétrie horizontale",
"TOKEN.MirrorY": "Symétrie verticale",
"TOKEN.Opacity": "Opacité du token",
"TOKEN.RandomImg": "Choisir aléatoirement une image",
"TOKEN.ResourceBar1A": "Attribut de la barre 1",
"TOKEN.ResourceBar1D": "Valeur de la barre 1",
"TOKEN.ResourceBar2A": "Attribut de la barre 2",
"TOKEN.ResourceBar2D": "Valeur de la barre 2",
"TOKEN.ResourceDisplay": "Afficher les barres",
"TOKEN.Title": "Configuration du token",
"TOKEN.TitlePrototype": "Prototype du token",
"TOKEN.TintColor": "Teinte",
"TOKEN.Update": "Mettre à jour le token",
"TOKEN.VisionHas": "Peut voir",
"TOKEN.VisionRadius": "Rayon de la vision",
"TOKEN.VisionBright": "Luminosité",
"TOKEN.VisionDim": "Obscurité",
"TOKEN.VisionAngle": "Angle de vision",
"TOKEN.WarningNoActor": "Ce Token référence un Personnage qui n'existe plus dans ce Monde.",
"TOKEN.WarningNoVision": "Vous ne possédez aucun Token avec de la \"vision\" sur cette scène",
"TOKEN.HOSTILE": "Hostile",
"TOKEN.NEUTRAL": "Neutre",
"TOKEN.FRIENDLY": "Amical",
"TOKEN.DISPLAY_NONE": "Jamais affiché",
"TOKEN.DISPLAY_CONTROL": "Lorsqu'il est contrôlé",
"TOKEN.DISPLAY_OWNER_HOVER": "Survolé par le propriétaire",
"TOKEN.DISPLAY_HOVER": "Survolé par n'importe qui",
"TOKEN.DISPLAY_OWNER": "Toujours pour le propriétaire",
"TOKEN.DISPLAY_ALWAYS": "Toujours pour tout le monde",

"USER.RoleNone": "Aucun",
"USER.RolePlayer": "Joueur (Player)",
"USER.RoleTrusted": "Joueur de confiance (Trusted Player)",
"USER.RoleAssistant": "Assistant MJ (Assistant GM)",
"USER.RoleGamemaster": "Maître du Jeu (Game Master)",
"USERS.AccessKey": "Code d'accès",
"USERS.Role": "Rôle du joueur",
"USERS.UserName": "Nom du joueur",
"USERS.KeyShow": "Voir le code d'accès",
"USERS.Create": "Ajouter un joueur",
"USERS.Delete": "Supprimer le joueur",
"USERS.Launch": "Valider",
"USERS.ManageTitle": "Gestion des joueurs",
"USERS.UpdateSuccess": "Mise à jour des joueurs réussie, retour au monde de jeu.",
"USERS.NoGMError": "Vous devez avoir au moins un Maître de Jeu (Game Master) de configuré pour votre monde.",
"USERS.DeleteWarning": "Ce joueur sera définitivement supprimé de l'univers du jeu.",
"USERS.DeleteGMWarning": "Vous êtes sur le point de supprimer un maître du Jeu !",

"WALLS.Title": "Configuration du mur",
"WALLS.TitleMany": "Configuration des murs [multiple]",
"WALLS.Instructions": "Définir les règles d'obstruction du mur pour la vision et le mouvement",
"WALLS.Coordinates": "Coordonnées du mur",
"WALLS.Light": "Restriction des sources lumineuses",
"WALLS.Movement": "Obstruction du mouvement",
"WALLS.Sight": "Restriction du champ de vision",
"WALLS.Sound": "Restriction du champ sonore",
"WALLS.Direction": "Direction du mur",
"WALLS.Door": "Porte",
"WALLS.DoorState": "État de la porte",
"WALLS.Submit": "Mettre à jour le mur",

"WORLD.DetailTab": "Details du monde",
"WORLD.DescTab": "Description du monde",

"WEBRTC.Title" : "Configuration audio/vidéo",
"WEBRTC.MenuLabel": "Configurer audio/vidéo",
"WEBRTC.MenuHint": "Configurer les paramètres spécifiques de la solution WebRTC intégrée d'audio/vidéo",
"WEBRTC.UnknownDevice" : "<Périphérique inconnu>",
"WEBRTC.VideoDevice" : "Périphérique de capture vidéo",
"WEBRTC.VideoDeviceNotes" : "Sélectionner le périphérique de capture vidéo souhaité, le cas échéant.",
"WEBRTC.AudioDevice" : "Périphérique de capture audio",
"WEBRTC.AudioDeviceNotes" : "Sélectionner le périphérique de capture audio souhaité, le cas échéant.",
"WEBRTC.AudioOutput" : "Périphérique de sortie audio",
"WEBRTC.AudioOutputNotes" : "Sélectionner le périphérique de sortie audio souhaité.",
"WEBRTC.DeviceUnavailableWarning": "La communication audio/vidéo n'a pas pû démarrer car un des périphériques d'entrée sélectionnés n'était pas disponible.",
"WEBRTC.DisableVideoSource" : "Désactiver la diffusion vidéo",
"WEBRTC.DisableAudioSource" : "Désactiver la diffusion audio",
"WEBRTC.DisableAudioOutput" : "Désactiver la sortie audio",
"WEBRTC.DefaultSource" : "Périphérique par défaut",
"WEBRTC.UnavailableDevice" : "Périphérique indisponible (utilisé par défaut)",
"WEBRTC.WebRTCTurnServer" : "Configuration du serveur relais",
"WEBRTC.TURNServerProvisioned" : "Fourni par le serveur de mise en relation (signaling server)",
"WEBRTC.CustomTURNServer" : "Serveur de relais (relay server) personnalisé",
"WEBRTC.WebRTCTURNURL" : "URL du serveur de relais (relay server)",
"WEBRTC.WebRTCTurnUsername" : "Nom d'utilisateur du serveur de relais (relay server)",
"WEBRTC.WebRTCTurnPassword" : "Mot de passe du serveur de relais (relay server)",
"WEBRTC.GeneralTab" : "Général",
"WEBRTC.DevicesTab" : "Périphériques",
"WEBRTC.ServerTab" : "Serveur",
"WEBRTC.GeneralTabNotGM" : "Les paramètres généraux audio/vidéo de la conférence ne peuvent être modifiés que par le MJ.",
"WEBRTC.AVMode" : "Mode de conférence audio/vidéo",
"WEBRTC.AVModeNotes" : "Seul un utilisateur Maître du Jeu (MJ) peut modifier ce paramètre, ce qui nécessitera le rechargement de Foundry VTT.",
"WEBRTC.ModeDisabled" : "Désactivé",
"WEBRTC.ModeAudioOnly" : "Audio seulement",
"WEBRTC.ModeVideoOnly" : "Video seulement",
"WEBRTC.ModeAudioVideo" : "Audio/Video activés",
"WEBRTC.TooltipToggleVideo" : "Basculer la vidéo",
"WEBRTC.TooltipConfigure" : "Paramétrer",
"WEBRTC.TooltipDock" : "Réinitialiser (fenêtre attachée au dock en bas à gauche)",
"WEBRTC.TooltipPopout" : "Fenêtre flottante",
"WEBRTC.PTTKeyWarn": "Votre touche Push-to-Talk utilise une ancienne valeur et peut ne pas fonctionner comme prévu, veuillez la reconfigurer.",
"WEBRTC.VoiceMode": "Mode de capture de la voix",
"WEBRTC.VoiceModeNotes": "Choisir comment votre voix est diffusée dans les appels AV.",
"WEBRTC.VoiceModeAlways": "Toujours activé",
"WEBRTC.VoiceModeActivity": "Activation par la voix",
"WEBRTC.VoiceModePtt": "Push-to-Talk (appuyer pour parler)",

"WEBRTC.TooltipAllowUserVideo" : "Autoriser la vidéo de l'utilisateur",
"WEBRTC.TooltipBlockUserVideo" : "Bloquer la vidéo de l'utilisateur",
"WEBRTC.TooltipAllowUserAudio" : "Autoriser l'audio utilisateur",
"WEBRTC.TooltipBlockUserAudio" : "Bloquer l'audio de l'utilisateur",
"WEBRTC.TooltipEnableMyVideo" : "Activer la vidéo",
"WEBRTC.TooltipDisableMyVideo" : "Désactiver la vidéo",
"WEBRTC.TooltipEnableMyAudio" : "Activer l'audio",
"WEBRTC.TooltipDisableMyAudio" : "Couper l'audio",
"WEBRTC.TooltipMutePeers" : "Désactiver le son pour les autres",
"WEBRTC.TooltipUnmutePeers" : "Désactiver la coupure du son pour les autres personnes",
"WEBRTC.TooltipShowPlayers" : "Afficher la liste des Joueurs",
"WEBRTC.TooltipHidePlayers" : "Masquer la liste des Joueurs",

"WEBRTC.TooltipChangeSize" : "Modifier la taille de la vidéo",
"WEBRTC.CaptureWarningVideo" : "Impossible de capturer à partir de vos périphériques audio ; Partage de vidéo uniquement",
"WEBRTC.CaptureWarningAudio" : "Impossible de capturer à partir de vos périphériques vidéo ; Partage audio uniquement",
"WEBRTC.CaptureErrorAudioVideo" : "Impossible de capturer à partir de vos appareils audio et vidéo",
"WEBRTC.CaptureErrorVideo" : "Impossible de capturer à partir de vos périphériques vidéo",
"WEBRTC.CaptureErrorAudio" : "Impossible de capturer à partir de vos périphériques audio",
"WEBRTC.ConnectError" : "Erreur de connexion au serveur de mise en relation (signalling server) audio/vidéo",
"WEBRTC.ConnectionLostWarning" : "Connexion perdue au serveur de mise en relation (signalling server) audio/vidéo. Tentative de rétablir la connexion.",
"WEBRTC.GenericError" : "Erreur WebRTC : ",
"WEBRTC.NoSSLError": "Impossible d'utiliser les appels Audio/Vidéo, les certificats SSL ne sont pas configurés correctement sur le serveur FoundryVTT. Voir la documentation en ligne pour les instructions.",
"WEBRTC.WarningCannotEnableVideo": "Vous ne pouvez pas activer votre caméra car vous ne disposez pas des droits suffisants pour diffuser votre flux vidéo.",
"WEBRTC.WarningCannotEnableAudio": "Vous ne pouvez pas activer votre microphone car vous ne disposez pas des droits suffisants pour diffuser votre flux audio.",

"WORLD.Title": "Titre du monde",
"WORLD.DataPath": "Chemin des données",
"WORLD.GameSystem": "Système de jeu",
"WORLD.BackgroundImage": "Image d'accueil",
"WORLD.NextSession": "Prochaine partie",
"WORLD.ResetModules": "Réinitialisation des modules actifs",
"WORLD.ResetKeys": "Réinitialisation des mots de passe des utilisateurs",
"WORLD.LaunchSafeMode": "Lancement en mode sans échec",
"WORLD.SafeModeHint": "Désactive tous les modules et les scènes actives, et arrête toute lecture audio",
"WORLD.Description": "Description du monde"
}